Processing Job # 0...
CYCLE 0            REMAINING: 74
CYCLE 1            REMAINING: 73
CYCLE 2            REMAINING: 72
CYCLE 3            REMAINING: 71
CYCLE 4            REMAINING: 70
CYCLE 5            REMAINING: 69
CYCLE 6            REMAINING: 68
CYCLE 7            REMAINING: 67
CYCLE 8            REMAINING: 66
CYCLE 9            REMAINING: 65
CYCLE 10           REMAINING: 64
CYCLE 11           REMAINING: 63
CYCLE 12           REMAINING: 62
CYCLE 13           REMAINING: 61
CYCLE 14           REMAINING: 60
CYCLE 15           REMAINING: 59
CYCLE 16           REMAINING: 58
CYCLE 17           REMAINING: 57
CYCLE 18           REMAINING: 56
CYCLE 19           REMAINING: 55
CYCLE 20           REMAINING: 54
CYCLE 21           REMAINING: 53
CYCLE 22           REMAINING: 52
CYCLE 23           REMAINING: 51
CYCLE 24           REMAINING: 50
CYCLE 25           REMAINING: 49
CYCLE 26           REMAINING: 48
CYCLE 27           REMAINING: 47
CYCLE 28           REMAINING: 46
CYCLE 29           REMAINING: 45
CYCLE 30           REMAINING: 44
CYCLE 31           REMAINING: 43
CYCLE 32           REMAINING: 42
CYCLE 33           REMAINING: 41
CYCLE 34           REMAINING: 40
CYCLE 35           REMAINING: 39
CYCLE 36           REMAINING: 38
CYCLE 37           REMAINING: 37
CYCLE 38           REMAINING: 36
CYCLE 39           REMAINING: 35
CYCLE 40           REMAINING: 34
CYCLE 41           REMAINING: 33
CYCLE 42           REMAINING: 32
CYCLE 43           REMAINING: 31
CYCLE 44           REMAINING: 30
CYCLE 45           REMAINING: 29
CYCLE 46           REMAINING: 28
CYCLE 47           REMAINING: 27
CYCLE 48           REMAINING: 26
CYCLE 49           REMAINING: 25
CYCLE 50           REMAINING: 24
CYCLE 51           REMAINING: 23
CYCLE 52           REMAINING: 22
CYCLE 53           REMAINING: 21
CYCLE 54           REMAINING: 20
CYCLE 55           REMAINING: 19
CYCLE 56           REMAINING: 18
CYCLE 57           REMAINING: 17
CYCLE 58           REMAINING: 16
CYCLE 59           REMAINING: 15
CYCLE 60           REMAINING: 14
CYCLE 61           REMAINING: 13
CYCLE 62           REMAINING: 12
CYCLE 63           REMAINING: 11
CYCLE 64           REMAINING: 10
CYCLE 65           REMAINING: 9
CYCLE 66           REMAINING: 8
CYCLE 67           REMAINING: 7
CYCLE 68           REMAINING: 6
CYCLE 69           REMAINING: 5
CYCLE 70           REMAINING: 4
CYCLE 71           REMAINING: 3
CYCLE 72           REMAINING: 2
CYCLE 73           REMAINING: 1

Processing Job # 1...
CYCLE 74           REMAINING: 132
CYCLE 75           REMAINING: 131
CYCLE 76           REMAINING: 130
CYCLE 77           REMAINING: 129
CYCLE 78           REMAINING: 128
CYCLE 79           REMAINING: 127
CYCLE 80           REMAINING: 126
CYCLE 81           REMAINING: 125
CYCLE 82           REMAINING: 124
CYCLE 83           REMAINING: 123
CYCLE 84           REMAINING: 122
CYCLE 85           REMAINING: 121
CYCLE 86           REMAINING: 120
CYCLE 87           REMAINING: 119
CYCLE 88           REMAINING: 118
CYCLE 89           REMAINING: 117
CYCLE 90           REMAINING: 116
CYCLE 91           REMAINING: 115
CYCLE 92           REMAINING: 114
CYCLE 93           REMAINING: 113
CYCLE 94           REMAINING: 112
CYCLE 95           REMAINING: 111
CYCLE 96           REMAINING: 110
CYCLE 97           REMAINING: 109
CYCLE 98           REMAINING: 108
CYCLE 99           REMAINING: 107
CYCLE 100          REMAINING: 106
CYCLE 101          REMAINING: 105
CYCLE 102          REMAINING: 104
CYCLE 103          REMAINING: 103
CYCLE 104          REMAINING: 102
CYCLE 105          REMAINING: 101
CYCLE 106          REMAINING: 100
CYCLE 107          REMAINING: 99
CYCLE 108          REMAINING: 98
CYCLE 109          REMAINING: 97
CYCLE 110          REMAINING: 96
CYCLE 111          REMAINING: 95
CYCLE 112          REMAINING: 94
CYCLE 113          REMAINING: 93
CYCLE 114          REMAINING: 92
CYCLE 115          REMAINING: 91
CYCLE 116          REMAINING: 90
CYCLE 117          REMAINING: 89
CYCLE 118          REMAINING: 88
CYCLE 119          REMAINING: 87
CYCLE 120          REMAINING: 86
CYCLE 121          REMAINING: 85
CYCLE 122          REMAINING: 84
CYCLE 123          REMAINING: 83
CYCLE 124          REMAINING: 82
CYCLE 125          REMAINING: 81
CYCLE 126          REMAINING: 80
CYCLE 127          REMAINING: 79
CYCLE 128          REMAINING: 78
CYCLE 129          REMAINING: 77
CYCLE 130          REMAINING: 76
CYCLE 131          REMAINING: 75
CYCLE 132          REMAINING: 74
CYCLE 133          REMAINING: 73
CYCLE 134          REMAINING: 72
CYCLE 135          REMAINING: 71
CYCLE 136          REMAINING: 70
CYCLE 137          REMAINING: 69
CYCLE 138          REMAINING: 68
CYCLE 139          REMAINING: 67
CYCLE 140          REMAINING: 66
CYCLE 141          REMAINING: 65
CYCLE 142          REMAINING: 64
CYCLE 143          REMAINING: 63
CYCLE 144          REMAINING: 62
CYCLE 145          REMAINING: 61
CYCLE 146          REMAINING: 60
CYCLE 147          REMAINING: 59
CYCLE 148          REMAINING: 58
CYCLE 149          REMAINING: 57
CYCLE 150          REMAINING: 56
CYCLE 151          REMAINING: 55
CYCLE 152          REMAINING: 54
CYCLE 153          REMAINING: 53
CYCLE 154          REMAINING: 52
CYCLE 155          REMAINING: 51
CYCLE 156          REMAINING: 50
CYCLE 157          REMAINING: 49
CYCLE 158          REMAINING: 48
CYCLE 159          REMAINING: 47
CYCLE 160          REMAINING: 46
CYCLE 161          REMAINING: 45
CYCLE 162          REMAINING: 44
CYCLE 163          REMAINING: 43
CYCLE 164          REMAINING: 42
CYCLE 165          REMAINING: 41
CYCLE 166          REMAINING: 40
CYCLE 167          REMAINING: 39
CYCLE 168          REMAINING: 38
CYCLE 169          REMAINING: 37
CYCLE 170          REMAINING: 36
CYCLE 171          REMAINING: 35
CYCLE 172          REMAINING: 34
CYCLE 173          REMAINING: 33
CYCLE 174          REMAINING: 32
CYCLE 175          REMAINING: 31
CYCLE 176          REMAINING: 30
CYCLE 177          REMAINING: 29
CYCLE 178          REMAINING: 28
CYCLE 179          REMAINING: 27
CYCLE 180          REMAINING: 26
CYCLE 181          REMAINING: 25
CYCLE 182          REMAINING: 24
CYCLE 183          REMAINING: 23
CYCLE 184          REMAINING: 22
CYCLE 185          REMAINING: 21
CYCLE 186          REMAINING: 20
CYCLE 187          REMAINING: 19
CYCLE 188          REMAINING: 18
CYCLE 189          REMAINING: 17
CYCLE 190          REMAINING: 16
CYCLE 191          REMAINING: 15
CYCLE 192          REMAINING: 14
CYCLE 193          REMAINING: 13
CYCLE 194          REMAINING: 12
CYCLE 195          REMAINING: 11
CYCLE 196          REMAINING: 10
CYCLE 197          REMAINING: 9
CYCLE 198          REMAINING: 8
CYCLE 199          REMAINING: 7
CYCLE 200          REMAINING: 6
CYCLE 201          REMAINING: 5
CYCLE 202          REMAINING: 4
CYCLE 203          REMAINING: 3
CYCLE 204          REMAINING: 2
CYCLE 205          REMAINING: 1

Processing Job # 2...
CYCLE 206          REMAINING: 98
CYCLE 207          REMAINING: 97
CYCLE 208          REMAINING: 96
CYCLE 209          REMAINING: 95
CYCLE 210          REMAINING: 94
CYCLE 211          REMAINING: 93
CYCLE 212          REMAINING: 92
CYCLE 213          REMAINING: 91
CYCLE 214          REMAINING: 90
CYCLE 215          REMAINING: 89
CYCLE 216          REMAINING: 88
CYCLE 217          REMAINING: 87
CYCLE 218          REMAINING: 86
CYCLE 219          REMAINING: 85
CYCLE 220          REMAINING: 84
CYCLE 221          REMAINING: 83
CYCLE 222          REMAINING: 82
CYCLE 223          REMAINING: 81
CYCLE 224          REMAINING: 80
CYCLE 225          REMAINING: 79
CYCLE 226          REMAINING: 78
CYCLE 227          REMAINING: 77
CYCLE 228          REMAINING: 76
CYCLE 229          REMAINING: 75
CYCLE 230          REMAINING: 74
CYCLE 231          REMAINING: 73
CYCLE 232          REMAINING: 72
CYCLE 233          REMAINING: 71
CYCLE 234          REMAINING: 70
CYCLE 235          REMAINING: 69
CYCLE 236          REMAINING: 68
CYCLE 237          REMAINING: 67
CYCLE 238          REMAINING: 66
CYCLE 239          REMAINING: 65
CYCLE 240          REMAINING: 64
CYCLE 241          REMAINING: 63
CYCLE 242          REMAINING: 62
CYCLE 243          REMAINING: 61
CYCLE 244          REMAINING: 60
CYCLE 245          REMAINING: 59
CYCLE 246          REMAINING: 58
CYCLE 247          REMAINING: 57
CYCLE 248          REMAINING: 56
CYCLE 249          REMAINING: 55
CYCLE 250          REMAINING: 54
CYCLE 251          REMAINING: 53
CYCLE 252          REMAINING: 52
CYCLE 253          REMAINING: 51
CYCLE 254          REMAINING: 50
CYCLE 255          REMAINING: 49
CYCLE 256          REMAINING: 48
CYCLE 257          REMAINING: 47
CYCLE 258          REMAINING: 46
CYCLE 259          REMAINING: 45
CYCLE 260          REMAINING: 44
CYCLE 261          REMAINING: 43
CYCLE 262          REMAINING: 42
CYCLE 263          REMAINING: 41
CYCLE 264          REMAINING: 40
CYCLE 265          REMAINING: 39
CYCLE 266          REMAINING: 38
CYCLE 267          REMAINING: 37
CYCLE 268          REMAINING: 36
CYCLE 269          REMAINING: 35
CYCLE 270          REMAINING: 34
CYCLE 271          REMAINING: 33
CYCLE 272          REMAINING: 32
CYCLE 273          REMAINING: 31
CYCLE 274          REMAINING: 30
CYCLE 275          REMAINING: 29
CYCLE 276          REMAINING: 28
CYCLE 277          REMAINING: 27
CYCLE 278          REMAINING: 26
CYCLE 279          REMAINING: 25
CYCLE 280          REMAINING: 24
CYCLE 281          REMAINING: 23
CYCLE 282          REMAINING: 22
CYCLE 283          REMAINING: 21
CYCLE 284          REMAINING: 20
CYCLE 285          REMAINING: 19
CYCLE 286          REMAINING: 18
CYCLE 287          REMAINING: 17
CYCLE 288          REMAINING: 16
CYCLE 289          REMAINING: 15
CYCLE 290          REMAINING: 14
CYCLE 291          REMAINING: 13
CYCLE 292          REMAINING: 12
CYCLE 293          REMAINING: 11
CYCLE 294          REMAINING: 10
CYCLE 295          REMAINING: 9
CYCLE 296          REMAINING: 8
CYCLE 297          REMAINING: 7
CYCLE 298          REMAINING: 6
CYCLE 299          REMAINING: 5
CYCLE 300          REMAINING: 4
CYCLE 301          REMAINING: 3
CYCLE 302          REMAINING: 2
CYCLE 303          REMAINING: 1

Processing Job # 3...
CYCLE 304          REMAINING: 115
CYCLE 305          REMAINING: 114
CYCLE 306          REMAINING: 113
CYCLE 307          REMAINING: 112
CYCLE 308          REMAINING: 111
CYCLE 309          REMAINING: 110
CYCLE 310          REMAINING: 109
CYCLE 311          REMAINING: 108
CYCLE 312          REMAINING: 107
CYCLE 313          REMAINING: 106
CYCLE 314          REMAINING: 105
CYCLE 315          REMAINING: 104
CYCLE 316          REMAINING: 103
CYCLE 317          REMAINING: 102
CYCLE 318          REMAINING: 101
CYCLE 319          REMAINING: 100
CYCLE 320          REMAINING: 99
CYCLE 321          REMAINING: 98
CYCLE 322          REMAINING: 97
CYCLE 323          REMAINING: 96
CYCLE 324          REMAINING: 95
CYCLE 325          REMAINING: 94
CYCLE 326          REMAINING: 93
CYCLE 327          REMAINING: 92
CYCLE 328          REMAINING: 91
CYCLE 329          REMAINING: 90
CYCLE 330          REMAINING: 89
CYCLE 331          REMAINING: 88
CYCLE 332          REMAINING: 87
CYCLE 333          REMAINING: 86
CYCLE 334          REMAINING: 85
CYCLE 335          REMAINING: 84
CYCLE 336          REMAINING: 83
CYCLE 337          REMAINING: 82
CYCLE 338          REMAINING: 81
CYCLE 339          REMAINING: 80
CYCLE 340          REMAINING: 79
CYCLE 341          REMAINING: 78
CYCLE 342          REMAINING: 77
CYCLE 343          REMAINING: 76
CYCLE 344          REMAINING: 75
CYCLE 345          REMAINING: 74
CYCLE 346          REMAINING: 73
CYCLE 347          REMAINING: 72
CYCLE 348          REMAINING: 71
CYCLE 349          REMAINING: 70
CYCLE 350          REMAINING: 69
CYCLE 351          REMAINING: 68
CYCLE 352          REMAINING: 67
CYCLE 353          REMAINING: 66
CYCLE 354          REMAINING: 65
CYCLE 355          REMAINING: 64
CYCLE 356          REMAINING: 63
CYCLE 357          REMAINING: 62
CYCLE 358          REMAINING: 61
CYCLE 359          REMAINING: 60
CYCLE 360          REMAINING: 59
CYCLE 361          REMAINING: 58
CYCLE 362          REMAINING: 57
CYCLE 363          REMAINING: 56
CYCLE 364          REMAINING: 55
CYCLE 365          REMAINING: 54
CYCLE 366          REMAINING: 53
CYCLE 367          REMAINING: 52
CYCLE 368          REMAINING: 51
CYCLE 369          REMAINING: 50
CYCLE 370          REMAINING: 49
CYCLE 371          REMAINING: 48
CYCLE 372          REMAINING: 47
CYCLE 373          REMAINING: 46
CYCLE 374          REMAINING: 45
CYCLE 375          REMAINING: 44
CYCLE 376          REMAINING: 43
CYCLE 377          REMAINING: 42
CYCLE 378          REMAINING: 41
CYCLE 379          REMAINING: 40
CYCLE 380          REMAINING: 39
CYCLE 381          REMAINING: 38
CYCLE 382          REMAINING: 37
CYCLE 383          REMAINING: 36
CYCLE 384          REMAINING: 35
CYCLE 385          REMAINING: 34
CYCLE 386          REMAINING: 33
CYCLE 387          REMAINING: 32
CYCLE 388          REMAINING: 31
CYCLE 389          REMAINING: 30
CYCLE 390          REMAINING: 29
CYCLE 391          REMAINING: 28
CYCLE 392          REMAINING: 27
CYCLE 393          REMAINING: 26
CYCLE 394          REMAINING: 25
CYCLE 395          REMAINING: 24
CYCLE 396          REMAINING: 23
CYCLE 397          REMAINING: 22
CYCLE 398          REMAINING: 21
CYCLE 399          REMAINING: 20
CYCLE 400          REMAINING: 19
CYCLE 401          REMAINING: 18
CYCLE 402          REMAINING: 17
CYCLE 403          REMAINING: 16
CYCLE 404          REMAINING: 15
CYCLE 405          REMAINING: 14
CYCLE 406          REMAINING: 13
CYCLE 407          REMAINING: 12
CYCLE 408          REMAINING: 11
CYCLE 409          REMAINING: 10
CYCLE 410          REMAINING: 9
CYCLE 411          REMAINING: 8
CYCLE 412          REMAINING: 7
CYCLE 413          REMAINING: 6
CYCLE 414          REMAINING: 5
CYCLE 415          REMAINING: 4
CYCLE 416          REMAINING: 3
CYCLE 417          REMAINING: 2
CYCLE 418          REMAINING: 1

Processing Job # 4...
CYCLE 419          REMAINING: 137
CYCLE 420          REMAINING: 136
CYCLE 421          REMAINING: 135
CYCLE 422          REMAINING: 134
CYCLE 423          REMAINING: 133
CYCLE 424          REMAINING: 132
CYCLE 425          REMAINING: 131
CYCLE 426          REMAINING: 130
CYCLE 427          REMAINING: 129
CYCLE 428          REMAINING: 128
CYCLE 429          REMAINING: 127
CYCLE 430          REMAINING: 126
CYCLE 431          REMAINING: 125
CYCLE 432          REMAINING: 124
CYCLE 433          REMAINING: 123
CYCLE 434          REMAINING: 122
CYCLE 435          REMAINING: 121
CYCLE 436          REMAINING: 120
CYCLE 437          REMAINING: 119
CYCLE 438          REMAINING: 118
CYCLE 439          REMAINING: 117
CYCLE 440          REMAINING: 116
CYCLE 441          REMAINING: 115
CYCLE 442          REMAINING: 114
CYCLE 443          REMAINING: 113
CYCLE 444          REMAINING: 112
CYCLE 445          REMAINING: 111
CYCLE 446          REMAINING: 110
CYCLE 447          REMAINING: 109
CYCLE 448          REMAINING: 108
CYCLE 449          REMAINING: 107
CYCLE 450          REMAINING: 106
CYCLE 451          REMAINING: 105
CYCLE 452          REMAINING: 104
CYCLE 453          REMAINING: 103
CYCLE 454          REMAINING: 102
CYCLE 455          REMAINING: 101
CYCLE 456          REMAINING: 100
CYCLE 457          REMAINING: 99
CYCLE 458          REMAINING: 98
CYCLE 459          REMAINING: 97
CYCLE 460          REMAINING: 96
CYCLE 461          REMAINING: 95
CYCLE 462          REMAINING: 94
CYCLE 463          REMAINING: 93
CYCLE 464          REMAINING: 92
CYCLE 465          REMAINING: 91
CYCLE 466          REMAINING: 90
CYCLE 467          REMAINING: 89
CYCLE 468          REMAINING: 88
CYCLE 469          REMAINING: 87
CYCLE 470          REMAINING: 86
CYCLE 471          REMAINING: 85
CYCLE 472          REMAINING: 84
CYCLE 473          REMAINING: 83
CYCLE 474          REMAINING: 82
CYCLE 475          REMAINING: 81
CYCLE 476          REMAINING: 80
CYCLE 477          REMAINING: 79
CYCLE 478          REMAINING: 78
CYCLE 479          REMAINING: 77
CYCLE 480          REMAINING: 76
CYCLE 481          REMAINING: 75
CYCLE 482          REMAINING: 74
CYCLE 483          REMAINING: 73
CYCLE 484          REMAINING: 72
CYCLE 485          REMAINING: 71
CYCLE 486          REMAINING: 70
CYCLE 487          REMAINING: 69
CYCLE 488          REMAINING: 68
CYCLE 489          REMAINING: 67
CYCLE 490          REMAINING: 66
CYCLE 491          REMAINING: 65
CYCLE 492          REMAINING: 64
CYCLE 493          REMAINING: 63
CYCLE 494          REMAINING: 62
CYCLE 495          REMAINING: 61
CYCLE 496          REMAINING: 60
CYCLE 497          REMAINING: 59
CYCLE 498          REMAINING: 58
CYCLE 499          REMAINING: 57
CYCLE 500          REMAINING: 56
CYCLE 501          REMAINING: 55
CYCLE 502          REMAINING: 54
CYCLE 503          REMAINING: 53
CYCLE 504          REMAINING: 52
CYCLE 505          REMAINING: 51
CYCLE 506          REMAINING: 50
CYCLE 507          REMAINING: 49
CYCLE 508          REMAINING: 48
CYCLE 509          REMAINING: 47
CYCLE 510          REMAINING: 46
CYCLE 511          REMAINING: 45
CYCLE 512          REMAINING: 44
CYCLE 513          REMAINING: 43
CYCLE 514          REMAINING: 42
CYCLE 515          REMAINING: 41
CYCLE 516          REMAINING: 40
CYCLE 517          REMAINING: 39
CYCLE 518          REMAINING: 38
CYCLE 519          REMAINING: 37
CYCLE 520          REMAINING: 36
CYCLE 521          REMAINING: 35
CYCLE 522          REMAINING: 34
CYCLE 523          REMAINING: 33
CYCLE 524          REMAINING: 32
CYCLE 525          REMAINING: 31
CYCLE 526          REMAINING: 30
CYCLE 527          REMAINING: 29
CYCLE 528          REMAINING: 28
CYCLE 529          REMAINING: 27
CYCLE 530          REMAINING: 26
CYCLE 531          REMAINING: 25
CYCLE 532          REMAINING: 24
CYCLE 533          REMAINING: 23
CYCLE 534          REMAINING: 22
CYCLE 535          REMAINING: 21
CYCLE 536          REMAINING: 20
CYCLE 537          REMAINING: 19
CYCLE 538          REMAINING: 18
CYCLE 539          REMAINING: 17
CYCLE 540          REMAINING: 16
CYCLE 541          REMAINING: 15
CYCLE 542          REMAINING: 14
CYCLE 543          REMAINING: 13
CYCLE 544          REMAINING: 12
CYCLE 545          REMAINING: 11
CYCLE 546          REMAINING: 10
CYCLE 547          REMAINING: 9
CYCLE 548          REMAINING: 8
CYCLE 549          REMAINING: 7
CYCLE 550          REMAINING: 6
CYCLE 551          REMAINING: 5
CYCLE 552          REMAINING: 4
CYCLE 553          REMAINING: 3
CYCLE 554          REMAINING: 2
CYCLE 555          REMAINING: 1

Processing Job # 5...
CYCLE 556          REMAINING: 71
CYCLE 557          REMAINING: 70
CYCLE 558          REMAINING: 69
CYCLE 559          REMAINING: 68
CYCLE 560          REMAINING: 67
CYCLE 561          REMAINING: 66
CYCLE 562          REMAINING: 65
CYCLE 563          REMAINING: 64
CYCLE 564          REMAINING: 63
CYCLE 565          REMAINING: 62
CYCLE 566          REMAINING: 61
CYCLE 567          REMAINING: 60
CYCLE 568          REMAINING: 59
CYCLE 569          REMAINING: 58
CYCLE 570          REMAINING: 57
CYCLE 571          REMAINING: 56
CYCLE 572          REMAINING: 55
CYCLE 573          REMAINING: 54
CYCLE 574          REMAINING: 53
CYCLE 575          REMAINING: 52
CYCLE 576          REMAINING: 51
CYCLE 577          REMAINING: 50
CYCLE 578          REMAINING: 49
CYCLE 579          REMAINING: 48
CYCLE 580          REMAINING: 47
CYCLE 581          REMAINING: 46
CYCLE 582          REMAINING: 45
CYCLE 583          REMAINING: 44
CYCLE 584          REMAINING: 43
CYCLE 585          REMAINING: 42
CYCLE 586          REMAINING: 41
CYCLE 587          REMAINING: 40
CYCLE 588          REMAINING: 39
CYCLE 589          REMAINING: 38
CYCLE 590          REMAINING: 37
CYCLE 591          REMAINING: 36
CYCLE 592          REMAINING: 35
CYCLE 593          REMAINING: 34
CYCLE 594          REMAINING: 33
CYCLE 595          REMAINING: 32
CYCLE 596          REMAINING: 31
CYCLE 597          REMAINING: 30
CYCLE 598          REMAINING: 29
CYCLE 599          REMAINING: 28
CYCLE 600          REMAINING: 27
CYCLE 601          REMAINING: 26
CYCLE 602          REMAINING: 25
CYCLE 603          REMAINING: 24
CYCLE 604          REMAINING: 23
CYCLE 605          REMAINING: 22
CYCLE 606          REMAINING: 21
CYCLE 607          REMAINING: 20
CYCLE 608          REMAINING: 19
CYCLE 609          REMAINING: 18
CYCLE 610          REMAINING: 17
CYCLE 611          REMAINING: 16
CYCLE 612          REMAINING: 15
CYCLE 613          REMAINING: 14
CYCLE 614          REMAINING: 13
CYCLE 615          REMAINING: 12
CYCLE 616          REMAINING: 11
CYCLE 617          REMAINING: 10
CYCLE 618          REMAINING: 9
CYCLE 619          REMAINING: 8
CYCLE 620          REMAINING: 7
CYCLE 621          REMAINING: 6
CYCLE 622          REMAINING: 5
CYCLE 623          REMAINING: 4
CYCLE 624          REMAINING: 3
CYCLE 625          REMAINING: 2
CYCLE 626          REMAINING: 1

Processing Job # 6...
CYCLE 627          REMAINING: 116
CYCLE 628          REMAINING: 115
CYCLE 629          REMAINING: 114
CYCLE 630          REMAINING: 113
CYCLE 631          REMAINING: 112
CYCLE 632          REMAINING: 111
CYCLE 633          REMAINING: 110
CYCLE 634          REMAINING: 109
CYCLE 635          REMAINING: 108
CYCLE 636          REMAINING: 107
CYCLE 637          REMAINING: 106
CYCLE 638          REMAINING: 105
CYCLE 639          REMAINING: 104
CYCLE 640          REMAINING: 103
CYCLE 641          REMAINING: 102
CYCLE 642          REMAINING: 101
CYCLE 643          REMAINING: 100
CYCLE 644          REMAINING: 99
CYCLE 645          REMAINING: 98
CYCLE 646          REMAINING: 97
CYCLE 647          REMAINING: 96
CYCLE 648          REMAINING: 95
CYCLE 649          REMAINING: 94
CYCLE 650          REMAINING: 93
CYCLE 651          REMAINING: 92
CYCLE 652          REMAINING: 91
CYCLE 653          REMAINING: 90
CYCLE 654          REMAINING: 89
CYCLE 655          REMAINING: 88
CYCLE 656          REMAINING: 87
CYCLE 657          REMAINING: 86
CYCLE 658          REMAINING: 85
CYCLE 659          REMAINING: 84
CYCLE 660          REMAINING: 83
CYCLE 661          REMAINING: 82
CYCLE 662          REMAINING: 81
CYCLE 663          REMAINING: 80
CYCLE 664          REMAINING: 79
CYCLE 665          REMAINING: 78
CYCLE 666          REMAINING: 77
CYCLE 667          REMAINING: 76
CYCLE 668          REMAINING: 75
CYCLE 669          REMAINING: 74
CYCLE 670          REMAINING: 73
CYCLE 671          REMAINING: 72
CYCLE 672          REMAINING: 71
CYCLE 673          REMAINING: 70
CYCLE 674          REMAINING: 69
CYCLE 675          REMAINING: 68
CYCLE 676          REMAINING: 67
CYCLE 677          REMAINING: 66
CYCLE 678          REMAINING: 65
CYCLE 679          REMAINING: 64
CYCLE 680          REMAINING: 63
CYCLE 681          REMAINING: 62
CYCLE 682          REMAINING: 61
CYCLE 683          REMAINING: 60
CYCLE 684          REMAINING: 59
CYCLE 685          REMAINING: 58
CYCLE 686          REMAINING: 57
CYCLE 687          REMAINING: 56
CYCLE 688          REMAINING: 55
CYCLE 689          REMAINING: 54
CYCLE 690          REMAINING: 53
CYCLE 691          REMAINING: 52
CYCLE 692          REMAINING: 51
CYCLE 693          REMAINING: 50
CYCLE 694          REMAINING: 49
CYCLE 695          REMAINING: 48
CYCLE 696          REMAINING: 47
CYCLE 697          REMAINING: 46
CYCLE 698          REMAINING: 45
CYCLE 699          REMAINING: 44
CYCLE 700          REMAINING: 43
CYCLE 701          REMAINING: 42
CYCLE 702          REMAINING: 41
CYCLE 703          REMAINING: 40
CYCLE 704          REMAINING: 39
CYCLE 705          REMAINING: 38
CYCLE 706          REMAINING: 37
CYCLE 707          REMAINING: 36
CYCLE 708          REMAINING: 35
CYCLE 709          REMAINING: 34
CYCLE 710          REMAINING: 33
CYCLE 711          REMAINING: 32
CYCLE 712          REMAINING: 31
CYCLE 713          REMAINING: 30
CYCLE 714          REMAINING: 29
CYCLE 715          REMAINING: 28
CYCLE 716          REMAINING: 27
CYCLE 717          REMAINING: 26
CYCLE 718          REMAINING: 25
CYCLE 719          REMAINING: 24
CYCLE 720          REMAINING: 23
CYCLE 721          REMAINING: 22
CYCLE 722          REMAINING: 21
CYCLE 723          REMAINING: 20
CYCLE 724          REMAINING: 19
CYCLE 725          REMAINING: 18
CYCLE 726          REMAINING: 17
CYCLE 727          REMAINING: 16
CYCLE 728          REMAINING: 15
CYCLE 729          REMAINING: 14
CYCLE 730          REMAINING: 13
CYCLE 731          REMAINING: 12
CYCLE 732          REMAINING: 11
CYCLE 733          REMAINING: 10
CYCLE 734          REMAINING: 9
CYCLE 735          REMAINING: 8
CYCLE 736          REMAINING: 7
CYCLE 737          REMAINING: 6
CYCLE 738          REMAINING: 5
CYCLE 739          REMAINING: 4
CYCLE 740          REMAINING: 3
CYCLE 741          REMAINING: 2
CYCLE 742          REMAINING: 1

Processing Job # 7...
CYCLE 743          REMAINING: 73
CYCLE 744          REMAINING: 72
CYCLE 745          REMAINING: 71
CYCLE 746          REMAINING: 70
CYCLE 747          REMAINING: 69
CYCLE 748          REMAINING: 68
CYCLE 749          REMAINING: 67
CYCLE 750          REMAINING: 66
CYCLE 751          REMAINING: 65
CYCLE 752          REMAINING: 64
CYCLE 753          REMAINING: 63
CYCLE 754          REMAINING: 62
CYCLE 755          REMAINING: 61
CYCLE 756          REMAINING: 60
CYCLE 757          REMAINING: 59
CYCLE 758          REMAINING: 58
CYCLE 759          REMAINING: 57
CYCLE 760          REMAINING: 56
CYCLE 761          REMAINING: 55
CYCLE 762          REMAINING: 54
CYCLE 763          REMAINING: 53
CYCLE 764          REMAINING: 52
CYCLE 765          REMAINING: 51
CYCLE 766          REMAINING: 50
CYCLE 767          REMAINING: 49
CYCLE 768          REMAINING: 48
CYCLE 769          REMAINING: 47
CYCLE 770          REMAINING: 46
CYCLE 771          REMAINING: 45
CYCLE 772          REMAINING: 44
CYCLE 773          REMAINING: 43
CYCLE 774          REMAINING: 42
CYCLE 775          REMAINING: 41
CYCLE 776          REMAINING: 40
CYCLE 777          REMAINING: 39
CYCLE 778          REMAINING: 38
CYCLE 779          REMAINING: 37
CYCLE 780          REMAINING: 36
CYCLE 781          REMAINING: 35
CYCLE 782          REMAINING: 34
CYCLE 783          REMAINING: 33
CYCLE 784          REMAINING: 32
CYCLE 785          REMAINING: 31
CYCLE 786          REMAINING: 30
CYCLE 787          REMAINING: 29
CYCLE 788          REMAINING: 28
CYCLE 789          REMAINING: 27
CYCLE 790          REMAINING: 26
CYCLE 791          REMAINING: 25
CYCLE 792          REMAINING: 24
CYCLE 793          REMAINING: 23
CYCLE 794          REMAINING: 22
CYCLE 795          REMAINING: 21
CYCLE 796          REMAINING: 20
CYCLE 797          REMAINING: 19
CYCLE 798          REMAINING: 18
CYCLE 799          REMAINING: 17
CYCLE 800          REMAINING: 16
CYCLE 801          REMAINING: 15
CYCLE 802          REMAINING: 14
CYCLE 803          REMAINING: 13
CYCLE 804          REMAINING: 12
CYCLE 805          REMAINING: 11
CYCLE 806          REMAINING: 10
CYCLE 807          REMAINING: 9
CYCLE 808          REMAINING: 8
CYCLE 809          REMAINING: 7
CYCLE 810          REMAINING: 6
CYCLE 811          REMAINING: 5
CYCLE 812          REMAINING: 4
CYCLE 813          REMAINING: 3
CYCLE 814          REMAINING: 2
CYCLE 815          REMAINING: 1

Processing Job # 8...
CYCLE 816          REMAINING: 104
CYCLE 817          REMAINING: 103
CYCLE 818          REMAINING: 102
CYCLE 819          REMAINING: 101
CYCLE 820          REMAINING: 100
CYCLE 821          REMAINING: 99
CYCLE 822          REMAINING: 98
CYCLE 823          REMAINING: 97
CYCLE 824          REMAINING: 96
CYCLE 825          REMAINING: 95
CYCLE 826          REMAINING: 94
CYCLE 827          REMAINING: 93
CYCLE 828          REMAINING: 92
CYCLE 829          REMAINING: 91
CYCLE 830          REMAINING: 90
CYCLE 831          REMAINING: 89
CYCLE 832          REMAINING: 88
CYCLE 833          REMAINING: 87
CYCLE 834          REMAINING: 86
CYCLE 835          REMAINING: 85
CYCLE 836          REMAINING: 84
CYCLE 837          REMAINING: 83
CYCLE 838          REMAINING: 82
CYCLE 839          REMAINING: 81
CYCLE 840          REMAINING: 80
CYCLE 841          REMAINING: 79
CYCLE 842          REMAINING: 78
CYCLE 843          REMAINING: 77
CYCLE 844          REMAINING: 76
CYCLE 845          REMAINING: 75
CYCLE 846          REMAINING: 74
CYCLE 847          REMAINING: 73
CYCLE 848          REMAINING: 72
CYCLE 849          REMAINING: 71
CYCLE 850          REMAINING: 70
CYCLE 851          REMAINING: 69
CYCLE 852          REMAINING: 68
CYCLE 853          REMAINING: 67
CYCLE 854          REMAINING: 66
CYCLE 855          REMAINING: 65
CYCLE 856          REMAINING: 64
CYCLE 857          REMAINING: 63
CYCLE 858          REMAINING: 62
CYCLE 859          REMAINING: 61
CYCLE 860          REMAINING: 60
CYCLE 861          REMAINING: 59
CYCLE 862          REMAINING: 58
CYCLE 863          REMAINING: 57
CYCLE 864          REMAINING: 56
CYCLE 865          REMAINING: 55
CYCLE 866          REMAINING: 54
CYCLE 867          REMAINING: 53
CYCLE 868          REMAINING: 52
CYCLE 869          REMAINING: 51
CYCLE 870          REMAINING: 50
CYCLE 871          REMAINING: 49
CYCLE 872          REMAINING: 48
CYCLE 873          REMAINING: 47
CYCLE 874          REMAINING: 46
CYCLE 875          REMAINING: 45
CYCLE 876          REMAINING: 44
CYCLE 877          REMAINING: 43
CYCLE 878          REMAINING: 42
CYCLE 879          REMAINING: 41
CYCLE 880          REMAINING: 40
CYCLE 881          REMAINING: 39
CYCLE 882          REMAINING: 38
CYCLE 883          REMAINING: 37
CYCLE 884          REMAINING: 36
CYCLE 885          REMAINING: 35
CYCLE 886          REMAINING: 34
CYCLE 887          REMAINING: 33
CYCLE 888          REMAINING: 32
CYCLE 889          REMAINING: 31
CYCLE 890          REMAINING: 30
CYCLE 891          REMAINING: 29
CYCLE 892          REMAINING: 28
CYCLE 893          REMAINING: 27
CYCLE 894          REMAINING: 26
CYCLE 895          REMAINING: 25
CYCLE 896          REMAINING: 24
CYCLE 897          REMAINING: 23
CYCLE 898          REMAINING: 22
CYCLE 899          REMAINING: 21
CYCLE 900          REMAINING: 20
CYCLE 901          REMAINING: 19
CYCLE 902          REMAINING: 18
CYCLE 903          REMAINING: 17
CYCLE 904          REMAINING: 16
CYCLE 905          REMAINING: 15
CYCLE 906          REMAINING: 14
CYCLE 907          REMAINING: 13
CYCLE 908          REMAINING: 12
CYCLE 909          REMAINING: 11
CYCLE 910          REMAINING: 10
CYCLE 911          REMAINING: 9
CYCLE 912          REMAINING: 8
CYCLE 913          REMAINING: 7
CYCLE 914          REMAINING: 6
CYCLE 915          REMAINING: 5
CYCLE 916          REMAINING: 4
CYCLE 917          REMAINING: 3
CYCLE 918          REMAINING: 2
CYCLE 919          REMAINING: 1

Processing Job # 9...
CYCLE 920          REMAINING: 99
CYCLE 921          REMAINING: 98
CYCLE 922          REMAINING: 97
CYCLE 923          REMAINING: 96
CYCLE 924          REMAINING: 95
CYCLE 925          REMAINING: 94
CYCLE 926          REMAINING: 93
CYCLE 927          REMAINING: 92
CYCLE 928          REMAINING: 91
CYCLE 929          REMAINING: 90
CYCLE 930          REMAINING: 89
CYCLE 931          REMAINING: 88
CYCLE 932          REMAINING: 87
CYCLE 933          REMAINING: 86
CYCLE 934          REMAINING: 85
CYCLE 935          REMAINING: 84
CYCLE 936          REMAINING: 83
CYCLE 937          REMAINING: 82
CYCLE 938          REMAINING: 81
CYCLE 939          REMAINING: 80
CYCLE 940          REMAINING: 79
CYCLE 941          REMAINING: 78
CYCLE 942          REMAINING: 77
CYCLE 943          REMAINING: 76
CYCLE 944          REMAINING: 75
CYCLE 945          REMAINING: 74
CYCLE 946          REMAINING: 73
CYCLE 947          REMAINING: 72
CYCLE 948          REMAINING: 71
CYCLE 949          REMAINING: 70
CYCLE 950          REMAINING: 69
CYCLE 951          REMAINING: 68
CYCLE 952          REMAINING: 67
CYCLE 953          REMAINING: 66
CYCLE 954          REMAINING: 65
CYCLE 955          REMAINING: 64
CYCLE 956          REMAINING: 63
CYCLE 957          REMAINING: 62
CYCLE 958          REMAINING: 61
CYCLE 959          REMAINING: 60
CYCLE 960          REMAINING: 59
CYCLE 961          REMAINING: 58
CYCLE 962          REMAINING: 57
CYCLE 963          REMAINING: 56
CYCLE 964          REMAINING: 55
CYCLE 965          REMAINING: 54
CYCLE 966          REMAINING: 53
CYCLE 967          REMAINING: 52
CYCLE 968          REMAINING: 51
CYCLE 969          REMAINING: 50
CYCLE 970          REMAINING: 49
CYCLE 971          REMAINING: 48
CYCLE 972          REMAINING: 47
CYCLE 973          REMAINING: 46
CYCLE 974          REMAINING: 45
CYCLE 975          REMAINING: 44
CYCLE 976          REMAINING: 43
CYCLE 977          REMAINING: 42
CYCLE 978          REMAINING: 41
CYCLE 979          REMAINING: 40
CYCLE 980          REMAINING: 39
CYCLE 981          REMAINING: 38
CYCLE 982          REMAINING: 37
CYCLE 983          REMAINING: 36
CYCLE 984          REMAINING: 35
CYCLE 985          REMAINING: 34
CYCLE 986          REMAINING: 33
CYCLE 987          REMAINING: 32
CYCLE 988          REMAINING: 31
CYCLE 989          REMAINING: 30
CYCLE 990          REMAINING: 29
CYCLE 991          REMAINING: 28
CYCLE 992          REMAINING: 27
CYCLE 993          REMAINING: 26
CYCLE 994          REMAINING: 25
CYCLE 995          REMAINING: 24
CYCLE 996          REMAINING: 23
CYCLE 997          REMAINING: 22
CYCLE 998          REMAINING: 21
CYCLE 999          REMAINING: 20
CYCLE 1000         REMAINING: 19
CYCLE 1001         REMAINING: 18
CYCLE 1002         REMAINING: 17
CYCLE 1003         REMAINING: 16
CYCLE 1004         REMAINING: 15
CYCLE 1005         REMAINING: 14
CYCLE 1006         REMAINING: 13
CYCLE 1007         REMAINING: 12
CYCLE 1008         REMAINING: 11
CYCLE 1009         REMAINING: 10
CYCLE 1010         REMAINING: 9
CYCLE 1011         REMAINING: 8
CYCLE 1012         REMAINING: 7
CYCLE 1013         REMAINING: 6
CYCLE 1014         REMAINING: 5
CYCLE 1015         REMAINING: 4
CYCLE 1016         REMAINING: 3
CYCLE 1017         REMAINING: 2
CYCLE 1018         REMAINING: 1

Processing Job # 10...
CYCLE 1019         REMAINING: 149
CYCLE 1020         REMAINING: 148
CYCLE 1021         REMAINING: 147
CYCLE 1022         REMAINING: 146
CYCLE 1023         REMAINING: 145
CYCLE 1024         REMAINING: 144
CYCLE 1025         REMAINING: 143
CYCLE 1026         REMAINING: 142
CYCLE 1027         REMAINING: 141
CYCLE 1028         REMAINING: 140
CYCLE 1029         REMAINING: 139
CYCLE 1030         REMAINING: 138
CYCLE 1031         REMAINING: 137
CYCLE 1032         REMAINING: 136
CYCLE 1033         REMAINING: 135
CYCLE 1034         REMAINING: 134
CYCLE 1035         REMAINING: 133
CYCLE 1036         REMAINING: 132
CYCLE 1037         REMAINING: 131
CYCLE 1038         REMAINING: 130
CYCLE 1039         REMAINING: 129
CYCLE 1040         REMAINING: 128
CYCLE 1041         REMAINING: 127
CYCLE 1042         REMAINING: 126
CYCLE 1043         REMAINING: 125
CYCLE 1044         REMAINING: 124
CYCLE 1045         REMAINING: 123
CYCLE 1046         REMAINING: 122
CYCLE 1047         REMAINING: 121
CYCLE 1048         REMAINING: 120
CYCLE 1049         REMAINING: 119
CYCLE 1050         REMAINING: 118
CYCLE 1051         REMAINING: 117
CYCLE 1052         REMAINING: 116
CYCLE 1053         REMAINING: 115
CYCLE 1054         REMAINING: 114
CYCLE 1055         REMAINING: 113
CYCLE 1056         REMAINING: 112
CYCLE 1057         REMAINING: 111
CYCLE 1058         REMAINING: 110
CYCLE 1059         REMAINING: 109
CYCLE 1060         REMAINING: 108
CYCLE 1061         REMAINING: 107
CYCLE 1062         REMAINING: 106
CYCLE 1063         REMAINING: 105
CYCLE 1064         REMAINING: 104
CYCLE 1065         REMAINING: 103
CYCLE 1066         REMAINING: 102
CYCLE 1067         REMAINING: 101
CYCLE 1068         REMAINING: 100
CYCLE 1069         REMAINING: 99
CYCLE 1070         REMAINING: 98
CYCLE 1071         REMAINING: 97
CYCLE 1072         REMAINING: 96
CYCLE 1073         REMAINING: 95
CYCLE 1074         REMAINING: 94
CYCLE 1075         REMAINING: 93
CYCLE 1076         REMAINING: 92
CYCLE 1077         REMAINING: 91
CYCLE 1078         REMAINING: 90
CYCLE 1079         REMAINING: 89
CYCLE 1080         REMAINING: 88
CYCLE 1081         REMAINING: 87
CYCLE 1082         REMAINING: 86
CYCLE 1083         REMAINING: 85
CYCLE 1084         REMAINING: 84
CYCLE 1085         REMAINING: 83
CYCLE 1086         REMAINING: 82
CYCLE 1087         REMAINING: 81
CYCLE 1088         REMAINING: 80
CYCLE 1089         REMAINING: 79
CYCLE 1090         REMAINING: 78
CYCLE 1091         REMAINING: 77
CYCLE 1092         REMAINING: 76
CYCLE 1093         REMAINING: 75
CYCLE 1094         REMAINING: 74
CYCLE 1095         REMAINING: 73
CYCLE 1096         REMAINING: 72
CYCLE 1097         REMAINING: 71
CYCLE 1098         REMAINING: 70
CYCLE 1099         REMAINING: 69
CYCLE 1100         REMAINING: 68
CYCLE 1101         REMAINING: 67
CYCLE 1102         REMAINING: 66
CYCLE 1103         REMAINING: 65
CYCLE 1104         REMAINING: 64
CYCLE 1105         REMAINING: 63
CYCLE 1106         REMAINING: 62
CYCLE 1107         REMAINING: 61
CYCLE 1108         REMAINING: 60
CYCLE 1109         REMAINING: 59
CYCLE 1110         REMAINING: 58
CYCLE 1111         REMAINING: 57
CYCLE 1112         REMAINING: 56
CYCLE 1113         REMAINING: 55
CYCLE 1114         REMAINING: 54
CYCLE 1115         REMAINING: 53
CYCLE 1116         REMAINING: 52
CYCLE 1117         REMAINING: 51
CYCLE 1118         REMAINING: 50
CYCLE 1119         REMAINING: 49
CYCLE 1120         REMAINING: 48
CYCLE 1121         REMAINING: 47
CYCLE 1122         REMAINING: 46
CYCLE 1123         REMAINING: 45
CYCLE 1124         REMAINING: 44
CYCLE 1125         REMAINING: 43
CYCLE 1126         REMAINING: 42
CYCLE 1127         REMAINING: 41
CYCLE 1128         REMAINING: 40
CYCLE 1129         REMAINING: 39
CYCLE 1130         REMAINING: 38
CYCLE 1131         REMAINING: 37
CYCLE 1132         REMAINING: 36
CYCLE 1133         REMAINING: 35
CYCLE 1134         REMAINING: 34
CYCLE 1135         REMAINING: 33
CYCLE 1136         REMAINING: 32
CYCLE 1137         REMAINING: 31
CYCLE 1138         REMAINING: 30
CYCLE 1139         REMAINING: 29
CYCLE 1140         REMAINING: 28
CYCLE 1141         REMAINING: 27
CYCLE 1142         REMAINING: 26
CYCLE 1143         REMAINING: 25
CYCLE 1144         REMAINING: 24
CYCLE 1145         REMAINING: 23
CYCLE 1146         REMAINING: 22
CYCLE 1147         REMAINING: 21
CYCLE 1148         REMAINING: 20
CYCLE 1149         REMAINING: 19
CYCLE 1150         REMAINING: 18
CYCLE 1151         REMAINING: 17
CYCLE 1152         REMAINING: 16
CYCLE 1153         REMAINING: 15
CYCLE 1154         REMAINING: 14
CYCLE 1155         REMAINING: 13
CYCLE 1156         REMAINING: 12
CYCLE 1157         REMAINING: 11
CYCLE 1158         REMAINING: 10
CYCLE 1159         REMAINING: 9
CYCLE 1160         REMAINING: 8
CYCLE 1161         REMAINING: 7
CYCLE 1162         REMAINING: 6
CYCLE 1163         REMAINING: 5
CYCLE 1164         REMAINING: 4
CYCLE 1165         REMAINING: 3
CYCLE 1166         REMAINING: 2
CYCLE 1167         REMAINING: 1

Processing Job # 11...
CYCLE 1168         REMAINING: 149
CYCLE 1169         REMAINING: 148
CYCLE 1170         REMAINING: 147
CYCLE 1171         REMAINING: 146
CYCLE 1172         REMAINING: 145
CYCLE 1173         REMAINING: 144
CYCLE 1174         REMAINING: 143
CYCLE 1175         REMAINING: 142
CYCLE 1176         REMAINING: 141
CYCLE 1177         REMAINING: 140
CYCLE 1178         REMAINING: 139
CYCLE 1179         REMAINING: 138
CYCLE 1180         REMAINING: 137
CYCLE 1181         REMAINING: 136
CYCLE 1182         REMAINING: 135
CYCLE 1183         REMAINING: 134
CYCLE 1184         REMAINING: 133
CYCLE 1185         REMAINING: 132
CYCLE 1186         REMAINING: 131
CYCLE 1187         REMAINING: 130
CYCLE 1188         REMAINING: 129
CYCLE 1189         REMAINING: 128
CYCLE 1190         REMAINING: 127
CYCLE 1191         REMAINING: 126
CYCLE 1192         REMAINING: 125
CYCLE 1193         REMAINING: 124
CYCLE 1194         REMAINING: 123
CYCLE 1195         REMAINING: 122
CYCLE 1196         REMAINING: 121
CYCLE 1197         REMAINING: 120
CYCLE 1198         REMAINING: 119
CYCLE 1199         REMAINING: 118
CYCLE 1200         REMAINING: 117
CYCLE 1201         REMAINING: 116
CYCLE 1202         REMAINING: 115
CYCLE 1203         REMAINING: 114
CYCLE 1204         REMAINING: 113
CYCLE 1205         REMAINING: 112
CYCLE 1206         REMAINING: 111
CYCLE 1207         REMAINING: 110
CYCLE 1208         REMAINING: 109
CYCLE 1209         REMAINING: 108
CYCLE 1210         REMAINING: 107
CYCLE 1211         REMAINING: 106
CYCLE 1212         REMAINING: 105
CYCLE 1213         REMAINING: 104
CYCLE 1214         REMAINING: 103
CYCLE 1215         REMAINING: 102
CYCLE 1216         REMAINING: 101
CYCLE 1217         REMAINING: 100
CYCLE 1218         REMAINING: 99
CYCLE 1219         REMAINING: 98
CYCLE 1220         REMAINING: 97
CYCLE 1221         REMAINING: 96
CYCLE 1222         REMAINING: 95
CYCLE 1223         REMAINING: 94
CYCLE 1224         REMAINING: 93
CYCLE 1225         REMAINING: 92
CYCLE 1226         REMAINING: 91
CYCLE 1227         REMAINING: 90
CYCLE 1228         REMAINING: 89
CYCLE 1229         REMAINING: 88
CYCLE 1230         REMAINING: 87
CYCLE 1231         REMAINING: 86
CYCLE 1232         REMAINING: 85
CYCLE 1233         REMAINING: 84
CYCLE 1234         REMAINING: 83
CYCLE 1235         REMAINING: 82
CYCLE 1236         REMAINING: 81
CYCLE 1237         REMAINING: 80
CYCLE 1238         REMAINING: 79
CYCLE 1239         REMAINING: 78
CYCLE 1240         REMAINING: 77
CYCLE 1241         REMAINING: 76
CYCLE 1242         REMAINING: 75
CYCLE 1243         REMAINING: 74
CYCLE 1244         REMAINING: 73
CYCLE 1245         REMAINING: 72
CYCLE 1246         REMAINING: 71
CYCLE 1247         REMAINING: 70
CYCLE 1248         REMAINING: 69
CYCLE 1249         REMAINING: 68
CYCLE 1250         REMAINING: 67
CYCLE 1251         REMAINING: 66
CYCLE 1252         REMAINING: 65
CYCLE 1253         REMAINING: 64
CYCLE 1254         REMAINING: 63
CYCLE 1255         REMAINING: 62
CYCLE 1256         REMAINING: 61
CYCLE 1257         REMAINING: 60
CYCLE 1258         REMAINING: 59
CYCLE 1259         REMAINING: 58
CYCLE 1260         REMAINING: 57
CYCLE 1261         REMAINING: 56
CYCLE 1262         REMAINING: 55
CYCLE 1263         REMAINING: 54
CYCLE 1264         REMAINING: 53
CYCLE 1265         REMAINING: 52
CYCLE 1266         REMAINING: 51
CYCLE 1267         REMAINING: 50
CYCLE 1268         REMAINING: 49
CYCLE 1269         REMAINING: 48
CYCLE 1270         REMAINING: 47
CYCLE 1271         REMAINING: 46
CYCLE 1272         REMAINING: 45
CYCLE 1273         REMAINING: 44
CYCLE 1274         REMAINING: 43
CYCLE 1275         REMAINING: 42
CYCLE 1276         REMAINING: 41
CYCLE 1277         REMAINING: 40
CYCLE 1278         REMAINING: 39
CYCLE 1279         REMAINING: 38
CYCLE 1280         REMAINING: 37
CYCLE 1281         REMAINING: 36
CYCLE 1282         REMAINING: 35
CYCLE 1283         REMAINING: 34
CYCLE 1284         REMAINING: 33
CYCLE 1285         REMAINING: 32
CYCLE 1286         REMAINING: 31
CYCLE 1287         REMAINING: 30
CYCLE 1288         REMAINING: 29
CYCLE 1289         REMAINING: 28
CYCLE 1290         REMAINING: 27
CYCLE 1291         REMAINING: 26
CYCLE 1292         REMAINING: 25
CYCLE 1293         REMAINING: 24
CYCLE 1294         REMAINING: 23
CYCLE 1295         REMAINING: 22
CYCLE 1296         REMAINING: 21
CYCLE 1297         REMAINING: 20
CYCLE 1298         REMAINING: 19
CYCLE 1299         REMAINING: 18
CYCLE 1300         REMAINING: 17
CYCLE 1301         REMAINING: 16
CYCLE 1302         REMAINING: 15
CYCLE 1303         REMAINING: 14
CYCLE 1304         REMAINING: 13
CYCLE 1305         REMAINING: 12
CYCLE 1306         REMAINING: 11
CYCLE 1307         REMAINING: 10
CYCLE 1308         REMAINING: 9
CYCLE 1309         REMAINING: 8
CYCLE 1310         REMAINING: 7
CYCLE 1311         REMAINING: 6
CYCLE 1312         REMAINING: 5
CYCLE 1313         REMAINING: 4
CYCLE 1314         REMAINING: 3
CYCLE 1315         REMAINING: 2
CYCLE 1316         REMAINING: 1

Processing Job # 12...
CYCLE 1317         REMAINING: 118
CYCLE 1318         REMAINING: 117
CYCLE 1319         REMAINING: 116
CYCLE 1320         REMAINING: 115
CYCLE 1321         REMAINING: 114
CYCLE 1322         REMAINING: 113
CYCLE 1323         REMAINING: 112
CYCLE 1324         REMAINING: 111
CYCLE 1325         REMAINING: 110
CYCLE 1326         REMAINING: 109
CYCLE 1327         REMAINING: 108
CYCLE 1328         REMAINING: 107
CYCLE 1329         REMAINING: 106
CYCLE 1330         REMAINING: 105
CYCLE 1331         REMAINING: 104
CYCLE 1332         REMAINING: 103
CYCLE 1333         REMAINING: 102
CYCLE 1334         REMAINING: 101
CYCLE 1335         REMAINING: 100
CYCLE 1336         REMAINING: 99
CYCLE 1337         REMAINING: 98
CYCLE 1338         REMAINING: 97
CYCLE 1339         REMAINING: 96
CYCLE 1340         REMAINING: 95
CYCLE 1341         REMAINING: 94
CYCLE 1342         REMAINING: 93
CYCLE 1343         REMAINING: 92
CYCLE 1344         REMAINING: 91
CYCLE 1345         REMAINING: 90
CYCLE 1346         REMAINING: 89
CYCLE 1347         REMAINING: 88
CYCLE 1348         REMAINING: 87
CYCLE 1349         REMAINING: 86
CYCLE 1350         REMAINING: 85
CYCLE 1351         REMAINING: 84
CYCLE 1352         REMAINING: 83
CYCLE 1353         REMAINING: 82
CYCLE 1354         REMAINING: 81
CYCLE 1355         REMAINING: 80
CYCLE 1356         REMAINING: 79
CYCLE 1357         REMAINING: 78
CYCLE 1358         REMAINING: 77
CYCLE 1359         REMAINING: 76
CYCLE 1360         REMAINING: 75
CYCLE 1361         REMAINING: 74
CYCLE 1362         REMAINING: 73
CYCLE 1363         REMAINING: 72
CYCLE 1364         REMAINING: 71
CYCLE 1365         REMAINING: 70
CYCLE 1366         REMAINING: 69
CYCLE 1367         REMAINING: 68
CYCLE 1368         REMAINING: 67
CYCLE 1369         REMAINING: 66
CYCLE 1370         REMAINING: 65
CYCLE 1371         REMAINING: 64
CYCLE 1372         REMAINING: 63
CYCLE 1373         REMAINING: 62
CYCLE 1374         REMAINING: 61
CYCLE 1375         REMAINING: 60
CYCLE 1376         REMAINING: 59
CYCLE 1377         REMAINING: 58
CYCLE 1378         REMAINING: 57
CYCLE 1379         REMAINING: 56
CYCLE 1380         REMAINING: 55
CYCLE 1381         REMAINING: 54
CYCLE 1382         REMAINING: 53
CYCLE 1383         REMAINING: 52
CYCLE 1384         REMAINING: 51
CYCLE 1385         REMAINING: 50
CYCLE 1386         REMAINING: 49
CYCLE 1387         REMAINING: 48
CYCLE 1388         REMAINING: 47
CYCLE 1389         REMAINING: 46
CYCLE 1390         REMAINING: 45
CYCLE 1391         REMAINING: 44
CYCLE 1392         REMAINING: 43
CYCLE 1393         REMAINING: 42
CYCLE 1394         REMAINING: 41
CYCLE 1395         REMAINING: 40
CYCLE 1396         REMAINING: 39
CYCLE 1397         REMAINING: 38
CYCLE 1398         REMAINING: 37
CYCLE 1399         REMAINING: 36
CYCLE 1400         REMAINING: 35
CYCLE 1401         REMAINING: 34
CYCLE 1402         REMAINING: 33
CYCLE 1403         REMAINING: 32
CYCLE 1404         REMAINING: 31
CYCLE 1405         REMAINING: 30
CYCLE 1406         REMAINING: 29
CYCLE 1407         REMAINING: 28
CYCLE 1408         REMAINING: 27
CYCLE 1409         REMAINING: 26
CYCLE 1410         REMAINING: 25
CYCLE 1411         REMAINING: 24
CYCLE 1412         REMAINING: 23
CYCLE 1413         REMAINING: 22
CYCLE 1414         REMAINING: 21
CYCLE 1415         REMAINING: 20
CYCLE 1416         REMAINING: 19
CYCLE 1417         REMAINING: 18
CYCLE 1418         REMAINING: 17
CYCLE 1419         REMAINING: 16
CYCLE 1420         REMAINING: 15
CYCLE 1421         REMAINING: 14
CYCLE 1422         REMAINING: 13
CYCLE 1423         REMAINING: 12
CYCLE 1424         REMAINING: 11
CYCLE 1425         REMAINING: 10
CYCLE 1426         REMAINING: 9
CYCLE 1427         REMAINING: 8
CYCLE 1428         REMAINING: 7
CYCLE 1429         REMAINING: 6
CYCLE 1430         REMAINING: 5
CYCLE 1431         REMAINING: 4
CYCLE 1432         REMAINING: 3
CYCLE 1433         REMAINING: 2
CYCLE 1434         REMAINING: 1

Processing Job # 13...
CYCLE 1435         REMAINING: 129
CYCLE 1436         REMAINING: 128
CYCLE 1437         REMAINING: 127
CYCLE 1438         REMAINING: 126
CYCLE 1439         REMAINING: 125
CYCLE 1440         REMAINING: 124
CYCLE 1441         REMAINING: 123
CYCLE 1442         REMAINING: 122
CYCLE 1443         REMAINING: 121
CYCLE 1444         REMAINING: 120
CYCLE 1445         REMAINING: 119
CYCLE 1446         REMAINING: 118
CYCLE 1447         REMAINING: 117
CYCLE 1448         REMAINING: 116
CYCLE 1449         REMAINING: 115
CYCLE 1450         REMAINING: 114
CYCLE 1451         REMAINING: 113
CYCLE 1452         REMAINING: 112
CYCLE 1453         REMAINING: 111
CYCLE 1454         REMAINING: 110
CYCLE 1455         REMAINING: 109
CYCLE 1456         REMAINING: 108
CYCLE 1457         REMAINING: 107
CYCLE 1458         REMAINING: 106
CYCLE 1459         REMAINING: 105
CYCLE 1460         REMAINING: 104
CYCLE 1461         REMAINING: 103
CYCLE 1462         REMAINING: 102
CYCLE 1463         REMAINING: 101
CYCLE 1464         REMAINING: 100
CYCLE 1465         REMAINING: 99
CYCLE 1466         REMAINING: 98
CYCLE 1467         REMAINING: 97
CYCLE 1468         REMAINING: 96
CYCLE 1469         REMAINING: 95
CYCLE 1470         REMAINING: 94
CYCLE 1471         REMAINING: 93
CYCLE 1472         REMAINING: 92
CYCLE 1473         REMAINING: 91
CYCLE 1474         REMAINING: 90
CYCLE 1475         REMAINING: 89
CYCLE 1476         REMAINING: 88
CYCLE 1477         REMAINING: 87
CYCLE 1478         REMAINING: 86
CYCLE 1479         REMAINING: 85
CYCLE 1480         REMAINING: 84
CYCLE 1481         REMAINING: 83
CYCLE 1482         REMAINING: 82
CYCLE 1483         REMAINING: 81
CYCLE 1484         REMAINING: 80
CYCLE 1485         REMAINING: 79
CYCLE 1486         REMAINING: 78
CYCLE 1487         REMAINING: 77
CYCLE 1488         REMAINING: 76
CYCLE 1489         REMAINING: 75
CYCLE 1490         REMAINING: 74
CYCLE 1491         REMAINING: 73
CYCLE 1492         REMAINING: 72
CYCLE 1493         REMAINING: 71
CYCLE 1494         REMAINING: 70
CYCLE 1495         REMAINING: 69
CYCLE 1496         REMAINING: 68
CYCLE 1497         REMAINING: 67
CYCLE 1498         REMAINING: 66
CYCLE 1499         REMAINING: 65
CYCLE 1500         REMAINING: 64
CYCLE 1501         REMAINING: 63
CYCLE 1502         REMAINING: 62
CYCLE 1503         REMAINING: 61
CYCLE 1504         REMAINING: 60
CYCLE 1505         REMAINING: 59
CYCLE 1506         REMAINING: 58
CYCLE 1507         REMAINING: 57
CYCLE 1508         REMAINING: 56
CYCLE 1509         REMAINING: 55
CYCLE 1510         REMAINING: 54
CYCLE 1511         REMAINING: 53
CYCLE 1512         REMAINING: 52
CYCLE 1513         REMAINING: 51
CYCLE 1514         REMAINING: 50
CYCLE 1515         REMAINING: 49
CYCLE 1516         REMAINING: 48
CYCLE 1517         REMAINING: 47
CYCLE 1518         REMAINING: 46
CYCLE 1519         REMAINING: 45
CYCLE 1520         REMAINING: 44
CYCLE 1521         REMAINING: 43
CYCLE 1522         REMAINING: 42
CYCLE 1523         REMAINING: 41
CYCLE 1524         REMAINING: 40
CYCLE 1525         REMAINING: 39
CYCLE 1526         REMAINING: 38
CYCLE 1527         REMAINING: 37
CYCLE 1528         REMAINING: 36
CYCLE 1529         REMAINING: 35
CYCLE 1530         REMAINING: 34
CYCLE 1531         REMAINING: 33
CYCLE 1532         REMAINING: 32
CYCLE 1533         REMAINING: 31
CYCLE 1534         REMAINING: 30
CYCLE 1535         REMAINING: 29
CYCLE 1536         REMAINING: 28
CYCLE 1537         REMAINING: 27
CYCLE 1538         REMAINING: 26
CYCLE 1539         REMAINING: 25
CYCLE 1540         REMAINING: 24
CYCLE 1541         REMAINING: 23
CYCLE 1542         REMAINING: 22
CYCLE 1543         REMAINING: 21
CYCLE 1544         REMAINING: 20
CYCLE 1545         REMAINING: 19
CYCLE 1546         REMAINING: 18
CYCLE 1547         REMAINING: 17
CYCLE 1548         REMAINING: 16
CYCLE 1549         REMAINING: 15
CYCLE 1550         REMAINING: 14
CYCLE 1551         REMAINING: 13
CYCLE 1552         REMAINING: 12
CYCLE 1553         REMAINING: 11
CYCLE 1554         REMAINING: 10
CYCLE 1555         REMAINING: 9
CYCLE 1556         REMAINING: 8
CYCLE 1557         REMAINING: 7
CYCLE 1558         REMAINING: 6
CYCLE 1559         REMAINING: 5
CYCLE 1560         REMAINING: 4
CYCLE 1561         REMAINING: 3
CYCLE 1562         REMAINING: 2
CYCLE 1563         REMAINING: 1

Processing Job # 14...
CYCLE 1564         REMAINING: 109
CYCLE 1565         REMAINING: 108
CYCLE 1566         REMAINING: 107
CYCLE 1567         REMAINING: 106
CYCLE 1568         REMAINING: 105
CYCLE 1569         REMAINING: 104
CYCLE 1570         REMAINING: 103
CYCLE 1571         REMAINING: 102
CYCLE 1572         REMAINING: 101
CYCLE 1573         REMAINING: 100
CYCLE 1574         REMAINING: 99
CYCLE 1575         REMAINING: 98
CYCLE 1576         REMAINING: 97
CYCLE 1577         REMAINING: 96
CYCLE 1578         REMAINING: 95
CYCLE 1579         REMAINING: 94
CYCLE 1580         REMAINING: 93
CYCLE 1581         REMAINING: 92
CYCLE 1582         REMAINING: 91
CYCLE 1583         REMAINING: 90
CYCLE 1584         REMAINING: 89
CYCLE 1585         REMAINING: 88
CYCLE 1586         REMAINING: 87
CYCLE 1587         REMAINING: 86
CYCLE 1588         REMAINING: 85
CYCLE 1589         REMAINING: 84
CYCLE 1590         REMAINING: 83
CYCLE 1591         REMAINING: 82
CYCLE 1592         REMAINING: 81
CYCLE 1593         REMAINING: 80
CYCLE 1594         REMAINING: 79
CYCLE 1595         REMAINING: 78
CYCLE 1596         REMAINING: 77
CYCLE 1597         REMAINING: 76
CYCLE 1598         REMAINING: 75
CYCLE 1599         REMAINING: 74
CYCLE 1600         REMAINING: 73
CYCLE 1601         REMAINING: 72
CYCLE 1602         REMAINING: 71
CYCLE 1603         REMAINING: 70
CYCLE 1604         REMAINING: 69
CYCLE 1605         REMAINING: 68
CYCLE 1606         REMAINING: 67
CYCLE 1607         REMAINING: 66
CYCLE 1608         REMAINING: 65
CYCLE 1609         REMAINING: 64
CYCLE 1610         REMAINING: 63
CYCLE 1611         REMAINING: 62
CYCLE 1612         REMAINING: 61
CYCLE 1613         REMAINING: 60
CYCLE 1614         REMAINING: 59
CYCLE 1615         REMAINING: 58
CYCLE 1616         REMAINING: 57
CYCLE 1617         REMAINING: 56
CYCLE 1618         REMAINING: 55
CYCLE 1619         REMAINING: 54
CYCLE 1620         REMAINING: 53
CYCLE 1621         REMAINING: 52
CYCLE 1622         REMAINING: 51
CYCLE 1623         REMAINING: 50
CYCLE 1624         REMAINING: 49
CYCLE 1625         REMAINING: 48
CYCLE 1626         REMAINING: 47
CYCLE 1627         REMAINING: 46
CYCLE 1628         REMAINING: 45
CYCLE 1629         REMAINING: 44
CYCLE 1630         REMAINING: 43
CYCLE 1631         REMAINING: 42
CYCLE 1632         REMAINING: 41
CYCLE 1633         REMAINING: 40
CYCLE 1634         REMAINING: 39
CYCLE 1635         REMAINING: 38
CYCLE 1636         REMAINING: 37
CYCLE 1637         REMAINING: 36
CYCLE 1638         REMAINING: 35
CYCLE 1639         REMAINING: 34
CYCLE 1640         REMAINING: 33
CYCLE 1641         REMAINING: 32
CYCLE 1642         REMAINING: 31
CYCLE 1643         REMAINING: 30
CYCLE 1644         REMAINING: 29
CYCLE 1645         REMAINING: 28
CYCLE 1646         REMAINING: 27
CYCLE 1647         REMAINING: 26
CYCLE 1648         REMAINING: 25
CYCLE 1649         REMAINING: 24
CYCLE 1650         REMAINING: 23
CYCLE 1651         REMAINING: 22
CYCLE 1652         REMAINING: 21
CYCLE 1653         REMAINING: 20
CYCLE 1654         REMAINING: 19
CYCLE 1655         REMAINING: 18
CYCLE 1656         REMAINING: 17
CYCLE 1657         REMAINING: 16
CYCLE 1658         REMAINING: 15
CYCLE 1659         REMAINING: 14
CYCLE 1660         REMAINING: 13
CYCLE 1661         REMAINING: 12
CYCLE 1662         REMAINING: 11
CYCLE 1663         REMAINING: 10
CYCLE 1664         REMAINING: 9
CYCLE 1665         REMAINING: 8
CYCLE 1666         REMAINING: 7
CYCLE 1667         REMAINING: 6
CYCLE 1668         REMAINING: 5
CYCLE 1669         REMAINING: 4
CYCLE 1670         REMAINING: 3
CYCLE 1671         REMAINING: 2
CYCLE 1672         REMAINING: 1



Job #0:
Time to complete: 73
Job #1:
Time to complete: 205
Job #2:
Time to complete: 303
Job #3:
Time to complete: 418
Job #4:
Time to complete: 555
Job #5:
Time to complete: 626
Job #6:
Time to complete: 742
Job #7:
Time to complete: 815
Job #8:
Time to complete: 919
Job #9:
Time to complete: 1018
Job #10:
Time to complete: 1167
Job #11:
Time to complete: 1316
Job #12:
Time to complete: 1434
Job #13:
Time to complete: 1563
Job #14:
Time to complete: 1672


Time to complete all jobs: 1673
Average time to coplete a job: 855
