CAR STATS

Total cars:              1000      
Tree height:             25        
Cheapest car:            1099.93        mini                woozy fox-terrier   
Most expensive car:      99945.5        honda               perfumed flounder   
