Doing my homework!

---------------------------------------------------------
DAY: 0

Processing task 8... 

All jobs by id:

ID   DUE ON    REMAINING      FINISHED DAY        OVERDUE   JOB NAME                                          PROCESSING?
0    33        10                                           Review Depth-first Search                         not started
1    22        10                                           Program Queues                                    not started
2    36        1                                            Program Depth-first Search                        not started
3    30        4                                            Research Mathematical Induction                   not started
4    33        6                                            Review Stacks                                     not started
5    20        2                                            Review Circuit Diagrams                           not started
6    30        4                                            Program Binary Search Trees                       not started
7    17        1                                            Research Breadth-first Search                     not started
8    15        2                                            Program Mathematical Induction                    processing
9    19        2                                            Research Heaps                                    not started
10   29        1                                            Program Heaps                                     not started
11   34        9                                            Research Set Theory                               not started

Queue state:

ID        DUE ON    ASSIGNMENT                                        
8         15        Program Mathematical Induction                    
7         17        Research Breadth-first Search                     
9         19        Research Heaps                                    
5         20        Review Circuit Diagrams                           
1         22        Program Queues                                    
10        29        Program Heaps                                     
3         30        Research Mathematical Induction                   
6         30        Program Binary Search Trees                       
0         33        Review Depth-first Search                         

---------------------------------------------------------
DAY: 1

Processing task 8... 

All jobs by id:

ID   DUE ON    REMAINING      FINISHED DAY        OVERDUE   JOB NAME                                          PROCESSING?
0    33        10                                           Review Depth-first Search                         not started
1    22        10                                           Program Queues                                    not started
2    36        1                                            Program Depth-first Search                        not started
3    30        4                                            Research Mathematical Induction                   not started
4    33        6                                            Review Stacks                                     not started
5    20        2                                            Review Circuit Diagrams                           not started
6    30        4                                            Program Binary Search Trees                       not started
7    17        1                                            Research Breadth-first Search                     not started
8    15        1                                            Program Mathematical Induction                    processing
9    19        2                                            Research Heaps                                    not started
10   29        1                                            Program Heaps                                     not started
11   34        9                                            Research Set Theory                               not started

Queue state:

ID        DUE ON    ASSIGNMENT                                        
8         15        Program Mathematical Induction                    
7         17        Research Breadth-first Search                     
9         19        Research Heaps                                    
5         20        Review Circuit Diagrams                           
1         22        Program Queues                                    
10        29        Program Heaps                                     
3         30        Research Mathematical Induction                   
6         30        Program Binary Search Trees                       
0         33        Review Depth-first Search                         

---------------------------------------------------------
DAY: 2

Processing task 8... done!

All jobs by id:

ID   DUE ON    REMAINING      FINISHED DAY        OVERDUE   JOB NAME                                          PROCESSING?
0    33        10                                           Review Depth-first Search                         not started
1    22        10                                           Program Queues                                    not started
2    36        1                                            Program Depth-first Search                        not started
3    30        4                                            Research Mathematical Induction                   not started
4    33        6                                            Review Stacks                                     not started
5    20        2                                            Review Circuit Diagrams                           not started
6    30        4                                            Program Binary Search Trees                       not started
7    17        1                                            Research Breadth-first Search                     processing
8    15        0              2                             Program Mathematical Induction                    done      
9    19        2                                            Research Heaps                                    not started
10   29        1                                            Program Heaps                                     not started
11   34        9                                            Research Set Theory                               not started

Queue state:

ID        DUE ON    ASSIGNMENT                                        
7         17        Research Breadth-first Search                     
9         19        Research Heaps                                    
5         20        Review Circuit Diagrams                           
1         22        Program Queues                                    
10        29        Program Heaps                                     
3         30        Research Mathematical Induction                   
6         30        Program Binary Search Trees                       
0         33        Review Depth-first Search                         

---------------------------------------------------------
DAY: 3

Processing task 7... done!

All jobs by id:

ID   DUE ON    REMAINING      FINISHED DAY        OVERDUE   JOB NAME                                          PROCESSING?
0    33        10                                           Review Depth-first Search                         not started
1    22        10                                           Program Queues                                    not started
2    36        1                                            Program Depth-first Search                        not started
3    30        4                                            Research Mathematical Induction                   not started
4    33        6                                            Review Stacks                                     not started
5    20        2                                            Review Circuit Diagrams                           not started
6    30        4                                            Program Binary Search Trees                       not started
7    17        0              3                             Research Breadth-first Search                     done      
8    15        0              2                             Program Mathematical Induction                    done      
9    19        2                                            Research Heaps                                    processing
10   29        1                                            Program Heaps                                     not started
11   34        9                                            Research Set Theory                               not started

Queue state:

ID        DUE ON    ASSIGNMENT                                        
9         19        Research Heaps                                    
5         20        Review Circuit Diagrams                           
1         22        Program Queues                                    
10        29        Program Heaps                                     
3         30        Research Mathematical Induction                   
6         30        Program Binary Search Trees                       
0         33        Review Depth-first Search                         

---------------------------------------------------------
DAY: 4

Processing task 9... 

All jobs by id:

ID   DUE ON    REMAINING      FINISHED DAY        OVERDUE   JOB NAME                                          PROCESSING?
0    33        10                                           Review Depth-first Search                         not started
1    22        10                                           Program Queues                                    not started
2    36        1                                            Program Depth-first Search                        not started
3    30        4                                            Research Mathematical Induction                   not started
4    33        6                                            Review Stacks                                     not started
5    20        2                                            Review Circuit Diagrams                           not started
6    30        4                                            Program Binary Search Trees                       not started
7    17        0              3                             Research Breadth-first Search                     done      
8    15        0              2                             Program Mathematical Induction                    done      
9    19        1                                            Research Heaps                                    processing
10   29        1                                            Program Heaps                                     not started
11   34        9                                            Research Set Theory                               not started

Queue state:

ID        DUE ON    ASSIGNMENT                                        
9         19        Research Heaps                                    
5         20        Review Circuit Diagrams                           
1         22        Program Queues                                    
10        29        Program Heaps                                     
3         30        Research Mathematical Induction                   
6         30        Program Binary Search Trees                       
0         33        Review Depth-first Search                         

---------------------------------------------------------
DAY: 5

Processing task 9... done!

All jobs by id:

ID   DUE ON    REMAINING      FINISHED DAY        OVERDUE   JOB NAME                                          PROCESSING?
0    33        10                                           Review Depth-first Search                         not started
1    22        10                                           Program Queues                                    not started
2    36        1                                            Program Depth-first Search                        not started
3    30        4                                            Research Mathematical Induction                   not started
4    33        6                                            Review Stacks                                     not started
5    20        2                                            Review Circuit Diagrams                           processing
6    30        4                                            Program Binary Search Trees                       not started
7    17        0              3                             Research Breadth-first Search                     done      
8    15        0              2                             Program Mathematical Induction                    done      
9    19        0              5                             Research Heaps                                    done      
10   29        1                                            Program Heaps                                     not started
11   34        9                                            Research Set Theory                               not started

Queue state:

ID        DUE ON    ASSIGNMENT                                        
5         20        Review Circuit Diagrams                           
1         22        Program Queues                                    
10        29        Program Heaps                                     
3         30        Research Mathematical Induction                   
6         30        Program Binary Search Trees                       
0         33        Review Depth-first Search                         

---------------------------------------------------------
DAY: 6

Processing task 5... 

All jobs by id:

ID   DUE ON    REMAINING      FINISHED DAY        OVERDUE   JOB NAME                                          PROCESSING?
0    33        10                                           Review Depth-first Search                         not started
1    22        10                                           Program Queues                                    not started
2    36        1                                            Program Depth-first Search                        not started
3    30        4                                            Research Mathematical Induction                   not started
4    33        6                                            Review Stacks                                     not started
5    20        1                                            Review Circuit Diagrams                           processing
6    30        4                                            Program Binary Search Trees                       not started
7    17        0              3                             Research Breadth-first Search                     done      
8    15        0              2                             Program Mathematical Induction                    done      
9    19        0              5                             Research Heaps                                    done      
10   29        1                                            Program Heaps                                     not started
11   34        9                                            Research Set Theory                               not started

Queue state:

ID        DUE ON    ASSIGNMENT                                        
5         20        Review Circuit Diagrams                           
1         22        Program Queues                                    
10        29        Program Heaps                                     
3         30        Research Mathematical Induction                   
6         30        Program Binary Search Trees                       
0         33        Review Depth-first Search                         

---------------------------------------------------------
DAY: 7

Processing task 5... done!

All jobs by id:

ID   DUE ON    REMAINING      FINISHED DAY        OVERDUE   JOB NAME                                          PROCESSING?
0    33        10                                           Review Depth-first Search                         not started
1    22        10                                           Program Queues                                    processing
2    36        1                                            Program Depth-first Search                        not started
3    30        4                                            Research Mathematical Induction                   not started
4    33        6                                            Review Stacks                                     not started
5    20        0              7                             Review Circuit Diagrams                           done      
6    30        4                                            Program Binary Search Trees                       not started
7    17        0              3                             Research Breadth-first Search                     done      
8    15        0              2                             Program Mathematical Induction                    done      
9    19        0              5                             Research Heaps                                    done      
10   29        1                                            Program Heaps                                     not started
11   34        9                                            Research Set Theory                               not started

Queue state:

ID        DUE ON    ASSIGNMENT                                        
1         22        Program Queues                                    
10        29        Program Heaps                                     
3         30        Research Mathematical Induction                   
6         30        Program Binary Search Trees                       
0         33        Review Depth-first Search                         

---------------------------------------------------------
DAY: 8

Processing task 1... 

All jobs by id:

ID   DUE ON    REMAINING      FINISHED DAY        OVERDUE   JOB NAME                                          PROCESSING?
0    33        10                                           Review Depth-first Search                         not started
1    22        9                                            Program Queues                                    processing
2    36        1                                            Program Depth-first Search                        not started
3    30        4                                            Research Mathematical Induction                   not started
4    33        6                                            Review Stacks                                     not started
5    20        0              7                             Review Circuit Diagrams                           done      
6    30        4                                            Program Binary Search Trees                       not started
7    17        0              3                             Research Breadth-first Search                     done      
8    15        0              2                             Program Mathematical Induction                    done      
9    19        0              5                             Research Heaps                                    done      
10   29        1                                            Program Heaps                                     not started
11   34        9                                            Research Set Theory                               not started

Queue state:

ID        DUE ON    ASSIGNMENT                                        
1         22        Program Queues                                    
10        29        Program Heaps                                     
3         30        Research Mathematical Induction                   
6         30        Program Binary Search Trees                       
0         33        Review Depth-first Search                         

---------------------------------------------------------
DAY: 9

Processing task 1... 

All jobs by id:

ID   DUE ON    REMAINING      FINISHED DAY        OVERDUE   JOB NAME                                          PROCESSING?
0    33        10                                           Review Depth-first Search                         not started
1    22        8                                            Program Queues                                    processing
2    36        1                                            Program Depth-first Search                        not started
3    30        4                                            Research Mathematical Induction                   not started
4    33        6                                            Review Stacks                                     not started
5    20        0              7                             Review Circuit Diagrams                           done      
6    30        4                                            Program Binary Search Trees                       not started
7    17        0              3                             Research Breadth-first Search                     done      
8    15        0              2                             Program Mathematical Induction                    done      
9    19        0              5                             Research Heaps                                    done      
10   29        1                                            Program Heaps                                     not started
11   34        9                                            Research Set Theory                               not started

Queue state:

ID        DUE ON    ASSIGNMENT                                        
1         22        Program Queues                                    
10        29        Program Heaps                                     
3         30        Research Mathematical Induction                   
6         30        Program Binary Search Trees                       
0         33        Review Depth-first Search                         

---------------------------------------------------------
DAY: 10

Processing task 1... 

All jobs by id:

ID   DUE ON    REMAINING      FINISHED DAY        OVERDUE   JOB NAME                                          PROCESSING?
0    33        10                                           Review Depth-first Search                         not started
1    22        7                                            Program Queues                                    processing
2    36        1                                            Program Depth-first Search                        not started
3    30        4                                            Research Mathematical Induction                   not started
4    33        6                                            Review Stacks                                     not started
5    20        0              7                             Review Circuit Diagrams                           done      
6    30        4                                            Program Binary Search Trees                       not started
7    17        0              3                             Research Breadth-first Search                     done      
8    15        0              2                             Program Mathematical Induction                    done      
9    19        0              5                             Research Heaps                                    done      
10   29        1                                            Program Heaps                                     not started
11   34        9                                            Research Set Theory                               not started

Queue state:

ID        DUE ON    ASSIGNMENT                                        
1         22        Program Queues                                    
10        29        Program Heaps                                     
3         30        Research Mathematical Induction                   
6         30        Program Binary Search Trees                       
0         33        Review Depth-first Search                         

---------------------------------------------------------
DAY: 11

Processing task 1... 

All jobs by id:

ID   DUE ON    REMAINING      FINISHED DAY        OVERDUE   JOB NAME                                          PROCESSING?
0    33        10                                           Review Depth-first Search                         not started
1    22        6                                            Program Queues                                    processing
2    36        1                                            Program Depth-first Search                        not started
3    30        4                                            Research Mathematical Induction                   not started
4    33        6                                            Review Stacks                                     not started
5    20        0              7                             Review Circuit Diagrams                           done      
6    30        4                                            Program Binary Search Trees                       not started
7    17        0              3                             Research Breadth-first Search                     done      
8    15        0              2                             Program Mathematical Induction                    done      
9    19        0              5                             Research Heaps                                    done      
10   29        1                                            Program Heaps                                     not started
11   34        9                                            Research Set Theory                               not started

Queue state:

ID        DUE ON    ASSIGNMENT                                        
1         22        Program Queues                                    
10        29        Program Heaps                                     
3         30        Research Mathematical Induction                   
6         30        Program Binary Search Trees                       
0         33        Review Depth-first Search                         

---------------------------------------------------------
DAY: 12

Processing task 1... 

All jobs by id:

ID   DUE ON    REMAINING      FINISHED DAY        OVERDUE   JOB NAME                                          PROCESSING?
0    33        10                                           Review Depth-first Search                         not started
1    22        5                                            Program Queues                                    processing
2    36        1                                            Program Depth-first Search                        not started
3    30        4                                            Research Mathematical Induction                   not started
4    33        6                                            Review Stacks                                     not started
5    20        0              7                             Review Circuit Diagrams                           done      
6    30        4                                            Program Binary Search Trees                       not started
7    17        0              3                             Research Breadth-first Search                     done      
8    15        0              2                             Program Mathematical Induction                    done      
9    19        0              5                             Research Heaps                                    done      
10   29        1                                            Program Heaps                                     not started
11   34        9                                            Research Set Theory                               not started

Queue state:

ID        DUE ON    ASSIGNMENT                                        
1         22        Program Queues                                    
10        29        Program Heaps                                     
3         30        Research Mathematical Induction                   
6         30        Program Binary Search Trees                       
0         33        Review Depth-first Search                         

---------------------------------------------------------
DAY: 13

Processing task 1... 

All jobs by id:

ID   DUE ON    REMAINING      FINISHED DAY        OVERDUE   JOB NAME                                          PROCESSING?
0    33        10                                           Review Depth-first Search                         not started
1    22        4                                            Program Queues                                    processing
2    36        1                                            Program Depth-first Search                        not started
3    30        4                                            Research Mathematical Induction                   not started
4    33        6                                            Review Stacks                                     not started
5    20        0              7                             Review Circuit Diagrams                           done      
6    30        4                                            Program Binary Search Trees                       not started
7    17        0              3                             Research Breadth-first Search                     done      
8    15        0              2                             Program Mathematical Induction                    done      
9    19        0              5                             Research Heaps                                    done      
10   29        1                                            Program Heaps                                     not started
11   34        9                                            Research Set Theory                               not started

Queue state:

ID        DUE ON    ASSIGNMENT                                        
1         22        Program Queues                                    
10        29        Program Heaps                                     
3         30        Research Mathematical Induction                   
6         30        Program Binary Search Trees                       
0         33        Review Depth-first Search                         

---------------------------------------------------------
DAY: 14

Processing task 1... 

All jobs by id:

ID   DUE ON    REMAINING      FINISHED DAY        OVERDUE   JOB NAME                                          PROCESSING?
0    33        10                                           Review Depth-first Search                         not started
1    22        3                                            Program Queues                                    processing
2    36        1                                            Program Depth-first Search                        not started
3    30        4                                            Research Mathematical Induction                   not started
4    33        6                                            Review Stacks                                     not started
5    20        0              7                             Review Circuit Diagrams                           done      
6    30        4                                            Program Binary Search Trees                       not started
7    17        0              3                             Research Breadth-first Search                     done      
8    15        0              2                             Program Mathematical Induction                    done      
9    19        0              5                             Research Heaps                                    done      
10   29        1                                            Program Heaps                                     not started
11   34        9                                            Research Set Theory                               not started

Queue state:

ID        DUE ON    ASSIGNMENT                                        
1         22        Program Queues                                    
10        29        Program Heaps                                     
3         30        Research Mathematical Induction                   
6         30        Program Binary Search Trees                       
0         33        Review Depth-first Search                         

---------------------------------------------------------
DAY: 15

Processing task 1... 

All jobs by id:

ID   DUE ON    REMAINING      FINISHED DAY        OVERDUE   JOB NAME                                          PROCESSING?
0    33        10                                           Review Depth-first Search                         not started
1    22        2                                            Program Queues                                    processing
2    36        1                                            Program Depth-first Search                        not started
3    30        4                                            Research Mathematical Induction                   not started
4    33        6                                            Review Stacks                                     not started
5    20        0              7                             Review Circuit Diagrams                           done      
6    30        4                                            Program Binary Search Trees                       not started
7    17        0              3                             Research Breadth-first Search                     done      
8    15        0              2                             Program Mathematical Induction                    done      
9    19        0              5                             Research Heaps                                    done      
10   29        1                                            Program Heaps                                     not started
11   34        9                                            Research Set Theory                               not started

Queue state:

ID        DUE ON    ASSIGNMENT                                        
1         22        Program Queues                                    
10        29        Program Heaps                                     
3         30        Research Mathematical Induction                   
6         30        Program Binary Search Trees                       
0         33        Review Depth-first Search                         

---------------------------------------------------------
DAY: 16

Processing task 1... 

All jobs by id:

ID   DUE ON    REMAINING      FINISHED DAY        OVERDUE   JOB NAME                                          PROCESSING?
0    33        10                                           Review Depth-first Search                         not started
1    22        1                                            Program Queues                                    processing
2    36        1                                            Program Depth-first Search                        not started
3    30        4                                            Research Mathematical Induction                   not started
4    33        6                                            Review Stacks                                     not started
5    20        0              7                             Review Circuit Diagrams                           done      
6    30        4                                            Program Binary Search Trees                       not started
7    17        0              3                             Research Breadth-first Search                     done      
8    15        0              2                             Program Mathematical Induction                    done      
9    19        0              5                             Research Heaps                                    done      
10   29        1                                            Program Heaps                                     not started
11   34        9                                            Research Set Theory                               not started

Queue state:

ID        DUE ON    ASSIGNMENT                                        
1         22        Program Queues                                    
10        29        Program Heaps                                     
3         30        Research Mathematical Induction                   
6         30        Program Binary Search Trees                       
0         33        Review Depth-first Search                         

---------------------------------------------------------
DAY: 17

Processing task 1... done!

All jobs by id:

ID   DUE ON    REMAINING      FINISHED DAY        OVERDUE   JOB NAME                                          PROCESSING?
0    33        10                                           Review Depth-first Search                         not started
1    22        0              17                            Program Queues                                    done      
2    36        1                                            Program Depth-first Search                        not started
3    30        4                                            Research Mathematical Induction                   not started
4    33        6                                            Review Stacks                                     not started
5    20        0              7                             Review Circuit Diagrams                           done      
6    30        4                                            Program Binary Search Trees                       not started
7    17        0              3                             Research Breadth-first Search                     done      
8    15        0              2                             Program Mathematical Induction                    done      
9    19        0              5                             Research Heaps                                    done      
10   29        1                                            Program Heaps                                     processing
11   34        9                                            Research Set Theory                               not started

Queue state:

ID        DUE ON    ASSIGNMENT                                        
10        29        Program Heaps                                     
3         30        Research Mathematical Induction                   
6         30        Program Binary Search Trees                       
0         33        Review Depth-first Search                         

---------------------------------------------------------
DAY: 18

Processing task 10... done!

All jobs by id:

ID   DUE ON    REMAINING      FINISHED DAY        OVERDUE   JOB NAME                                          PROCESSING?
0    33        10                                           Review Depth-first Search                         not started
1    22        0              17                            Program Queues                                    done      
2    36        1                                            Program Depth-first Search                        not started
3    30        4                                            Research Mathematical Induction                   processing
4    33        6                                            Review Stacks                                     not started
5    20        0              7                             Review Circuit Diagrams                           done      
6    30        4                                            Program Binary Search Trees                       not started
7    17        0              3                             Research Breadth-first Search                     done      
8    15        0              2                             Program Mathematical Induction                    done      
9    19        0              5                             Research Heaps                                    done      
10   29        0              18                            Program Heaps                                     done      
11   34        9                                            Research Set Theory                               not started

Queue state:

ID        DUE ON    ASSIGNMENT                                        
3         30        Research Mathematical Induction                   
6         30        Program Binary Search Trees                       
0         33        Review Depth-first Search                         

---------------------------------------------------------
DAY: 19

Processing task 3... 

All jobs by id:

ID   DUE ON    REMAINING      FINISHED DAY        OVERDUE   JOB NAME                                          PROCESSING?
0    33        10                                           Review Depth-first Search                         not started
1    22        0              17                            Program Queues                                    done      
2    36        1                                            Program Depth-first Search                        not started
3    30        3                                            Research Mathematical Induction                   processing
4    33        6                                            Review Stacks                                     not started
5    20        0              7                             Review Circuit Diagrams                           done      
6    30        4                                            Program Binary Search Trees                       not started
7    17        0              3                             Research Breadth-first Search                     done      
8    15        0              2                             Program Mathematical Induction                    done      
9    19        0              5                             Research Heaps                                    done      
10   29        0              18                            Program Heaps                                     done      
11   34        9                                            Research Set Theory                               not started

Queue state:

ID        DUE ON    ASSIGNMENT                                        
3         30        Research Mathematical Induction                   
6         30        Program Binary Search Trees                       
0         33        Review Depth-first Search                         

---------------------------------------------------------
DAY: 20

Processing task 3... 

All jobs by id:

ID   DUE ON    REMAINING      FINISHED DAY        OVERDUE   JOB NAME                                          PROCESSING?
0    33        10                                           Review Depth-first Search                         not started
1    22        0              17                            Program Queues                                    done      
2    36        1                                            Program Depth-first Search                        not started
3    30        2                                            Research Mathematical Induction                   processing
4    33        6                                            Review Stacks                                     not started
5    20        0              7                             Review Circuit Diagrams                           done      
6    30        4                                            Program Binary Search Trees                       not started
7    17        0              3                             Research Breadth-first Search                     done      
8    15        0              2                             Program Mathematical Induction                    done      
9    19        0              5                             Research Heaps                                    done      
10   29        0              18                            Program Heaps                                     done      
11   34        9                                            Research Set Theory                               not started

Queue state:

ID        DUE ON    ASSIGNMENT                                        
3         30        Research Mathematical Induction                   
6         30        Program Binary Search Trees                       
0         33        Review Depth-first Search                         

---------------------------------------------------------
DAY: 21

Processing task 3... 

All jobs by id:

ID   DUE ON    REMAINING      FINISHED DAY        OVERDUE   JOB NAME                                          PROCESSING?
0    33        10                                           Review Depth-first Search                         not started
1    22        0              17                            Program Queues                                    done      
2    36        1                                            Program Depth-first Search                        not started
3    30        1                                            Research Mathematical Induction                   processing
4    33        6                                            Review Stacks                                     not started
5    20        0              7                             Review Circuit Diagrams                           done      
6    30        4                                            Program Binary Search Trees                       not started
7    17        0              3                             Research Breadth-first Search                     done      
8    15        0              2                             Program Mathematical Induction                    done      
9    19        0              5                             Research Heaps                                    done      
10   29        0              18                            Program Heaps                                     done      
11   34        9                                            Research Set Theory                               not started

Queue state:

ID        DUE ON    ASSIGNMENT                                        
3         30        Research Mathematical Induction                   
6         30        Program Binary Search Trees                       
0         33        Review Depth-first Search                         

---------------------------------------------------------
DAY: 22

Processing task 3... done!

All jobs by id:

ID   DUE ON    REMAINING      FINISHED DAY        OVERDUE   JOB NAME                                          PROCESSING?
0    33        10                                           Review Depth-first Search                         not started
1    22        0              17                            Program Queues                                    done      
2    36        1                                            Program Depth-first Search                        not started
3    30        0              22                            Research Mathematical Induction                   done      
4    33        6                                            Review Stacks                                     not started
5    20        0              7                             Review Circuit Diagrams                           done      
6    30        4                                            Program Binary Search Trees                       processing
7    17        0              3                             Research Breadth-first Search                     done      
8    15        0              2                             Program Mathematical Induction                    done      
9    19        0              5                             Research Heaps                                    done      
10   29        0              18                            Program Heaps                                     done      
11   34        9                                            Research Set Theory                               not started

Queue state:

ID        DUE ON    ASSIGNMENT                                        
6         30        Program Binary Search Trees                       
0         33        Review Depth-first Search                         

---------------------------------------------------------
DAY: 23

Processing task 6... 

All jobs by id:

ID   DUE ON    REMAINING      FINISHED DAY        OVERDUE   JOB NAME                                          PROCESSING?
0    33        10                                           Review Depth-first Search                         not started
1    22        0              17                            Program Queues                                    done      
2    36        1                                            Program Depth-first Search                        not started
3    30        0              22                            Research Mathematical Induction                   done      
4    33        6                                            Review Stacks                                     not started
5    20        0              7                             Review Circuit Diagrams                           done      
6    30        3                                            Program Binary Search Trees                       processing
7    17        0              3                             Research Breadth-first Search                     done      
8    15        0              2                             Program Mathematical Induction                    done      
9    19        0              5                             Research Heaps                                    done      
10   29        0              18                            Program Heaps                                     done      
11   34        9                                            Research Set Theory                               not started

Queue state:

ID        DUE ON    ASSIGNMENT                                        
6         30        Program Binary Search Trees                       
0         33        Review Depth-first Search                         

---------------------------------------------------------
DAY: 24

Processing task 6... 

All jobs by id:

ID   DUE ON    REMAINING      FINISHED DAY        OVERDUE   JOB NAME                                          PROCESSING?
0    33        10                                           Review Depth-first Search                         not started
1    22        0              17                            Program Queues                                    done      
2    36        1                                            Program Depth-first Search                        not started
3    30        0              22                            Research Mathematical Induction                   done      
4    33        6                                            Review Stacks                                     not started
5    20        0              7                             Review Circuit Diagrams                           done      
6    30        2                                            Program Binary Search Trees                       processing
7    17        0              3                             Research Breadth-first Search                     done      
8    15        0              2                             Program Mathematical Induction                    done      
9    19        0              5                             Research Heaps                                    done      
10   29        0              18                            Program Heaps                                     done      
11   34        9                                            Research Set Theory                               not started

Queue state:

ID        DUE ON    ASSIGNMENT                                        
6         30        Program Binary Search Trees                       
0         33        Review Depth-first Search                         

---------------------------------------------------------
DAY: 25

Processing task 6... 

All jobs by id:

ID   DUE ON    REMAINING      FINISHED DAY        OVERDUE   JOB NAME                                          PROCESSING?
0    33        10                                           Review Depth-first Search                         not started
1    22        0              17                            Program Queues                                    done      
2    36        1                                            Program Depth-first Search                        not started
3    30        0              22                            Research Mathematical Induction                   done      
4    33        6                                            Review Stacks                                     not started
5    20        0              7                             Review Circuit Diagrams                           done      
6    30        1                                            Program Binary Search Trees                       processing
7    17        0              3                             Research Breadth-first Search                     done      
8    15        0              2                             Program Mathematical Induction                    done      
9    19        0              5                             Research Heaps                                    done      
10   29        0              18                            Program Heaps                                     done      
11   34        9                                            Research Set Theory                               not started

Queue state:

ID        DUE ON    ASSIGNMENT                                        
6         30        Program Binary Search Trees                       
0         33        Review Depth-first Search                         

---------------------------------------------------------
DAY: 26

Processing task 6... done!

All jobs by id:

ID   DUE ON    REMAINING      FINISHED DAY        OVERDUE   JOB NAME                                          PROCESSING?
0    33        10                                           Review Depth-first Search                         processing
1    22        0              17                            Program Queues                                    done      
2    36        1                                            Program Depth-first Search                        not started
3    30        0              22                            Research Mathematical Induction                   done      
4    33        6                                            Review Stacks                                     not started
5    20        0              7                             Review Circuit Diagrams                           done      
6    30        0              26                            Program Binary Search Trees                       done      
7    17        0              3                             Research Breadth-first Search                     done      
8    15        0              2                             Program Mathematical Induction                    done      
9    19        0              5                             Research Heaps                                    done      
10   29        0              18                            Program Heaps                                     done      
11   34        9                                            Research Set Theory                               not started

Queue state:

ID        DUE ON    ASSIGNMENT                                        
0         33        Review Depth-first Search                         

---------------------------------------------------------
DAY: 27

Processing task 0... 

All jobs by id:

ID   DUE ON    REMAINING      FINISHED DAY        OVERDUE   JOB NAME                                          PROCESSING?
0    33        9                                            Review Depth-first Search                         processing
1    22        0              17                            Program Queues                                    done      
2    36        1                                            Program Depth-first Search                        not started
3    30        0              22                            Research Mathematical Induction                   done      
4    33        6                                            Review Stacks                                     not started
5    20        0              7                             Review Circuit Diagrams                           done      
6    30        0              26                            Program Binary Search Trees                       done      
7    17        0              3                             Research Breadth-first Search                     done      
8    15        0              2                             Program Mathematical Induction                    done      
9    19        0              5                             Research Heaps                                    done      
10   29        0              18                            Program Heaps                                     done      
11   34        9                                            Research Set Theory                               not started

Queue state:

ID        DUE ON    ASSIGNMENT                                        
0         33        Review Depth-first Search                         

---------------------------------------------------------
DAY: 28

Processing task 0... 

All jobs by id:

ID   DUE ON    REMAINING      FINISHED DAY        OVERDUE   JOB NAME                                          PROCESSING?
0    33        8                                            Review Depth-first Search                         processing
1    22        0              17                            Program Queues                                    done      
2    36        1                                            Program Depth-first Search                        not started
3    30        0              22                            Research Mathematical Induction                   done      
4    33        6                                            Review Stacks                                     not started
5    20        0              7                             Review Circuit Diagrams                           done      
6    30        0              26                            Program Binary Search Trees                       done      
7    17        0              3                             Research Breadth-first Search                     done      
8    15        0              2                             Program Mathematical Induction                    done      
9    19        0              5                             Research Heaps                                    done      
10   29        0              18                            Program Heaps                                     done      
11   34        9                                            Research Set Theory                               not started

Queue state:

ID        DUE ON    ASSIGNMENT                                        
0         33        Review Depth-first Search                         

---------------------------------------------------------
DAY: 29

Processing task 0... 

All jobs by id:

ID   DUE ON    REMAINING      FINISHED DAY        OVERDUE   JOB NAME                                          PROCESSING?
0    33        7                                            Review Depth-first Search                         processing
1    22        0              17                            Program Queues                                    done      
2    36        1                                            Program Depth-first Search                        not started
3    30        0              22                            Research Mathematical Induction                   done      
4    33        6                                            Review Stacks                                     not started
5    20        0              7                             Review Circuit Diagrams                           done      
6    30        0              26                            Program Binary Search Trees                       done      
7    17        0              3                             Research Breadth-first Search                     done      
8    15        0              2                             Program Mathematical Induction                    done      
9    19        0              5                             Research Heaps                                    done      
10   29        0              18                            Program Heaps                                     done      
11   34        9                                            Research Set Theory                               not started

Queue state:

ID        DUE ON    ASSIGNMENT                                        
0         33        Review Depth-first Search                         

---------------------------------------------------------
DAY: 30

Processing task 0... 

All jobs by id:

ID   DUE ON    REMAINING      FINISHED DAY        OVERDUE   JOB NAME                                          PROCESSING?
0    33        6                                            Review Depth-first Search                         processing
1    22        0              17                            Program Queues                                    done      
2    36        1                                            Program Depth-first Search                        not started
3    30        0              22                            Research Mathematical Induction                   done      
4    33        6                                            Review Stacks                                     not started
5    20        0              7                             Review Circuit Diagrams                           done      
6    30        0              26                            Program Binary Search Trees                       done      
7    17        0              3                             Research Breadth-first Search                     done      
8    15        0              2                             Program Mathematical Induction                    done      
9    19        0              5                             Research Heaps                                    done      
10   29        0              18                            Program Heaps                                     done      
11   34        9                                            Research Set Theory                               not started

Queue state:

ID        DUE ON    ASSIGNMENT                                        
0         33        Review Depth-first Search                         

---------------------------------------------------------
DAY: 31

Processing task 0... 

All jobs by id:

ID   DUE ON    REMAINING      FINISHED DAY        OVERDUE   JOB NAME                                          PROCESSING?
0    33        5                                            Review Depth-first Search                         processing
1    22        0              17                            Program Queues                                    done      
2    36        1                                            Program Depth-first Search                        not started
3    30        0              22                            Research Mathematical Induction                   done      
4    33        6                                            Review Stacks                                     not started
5    20        0              7                             Review Circuit Diagrams                           done      
6    30        0              26                            Program Binary Search Trees                       done      
7    17        0              3                             Research Breadth-first Search                     done      
8    15        0              2                             Program Mathematical Induction                    done      
9    19        0              5                             Research Heaps                                    done      
10   29        0              18                            Program Heaps                                     done      
11   34        9                                            Research Set Theory                               not started

Queue state:

ID        DUE ON    ASSIGNMENT                                        
0         33        Review Depth-first Search                         

---------------------------------------------------------
DAY: 32

Processing task 0... 

All jobs by id:

ID   DUE ON    REMAINING      FINISHED DAY        OVERDUE   JOB NAME                                          PROCESSING?
0    33        4                                            Review Depth-first Search                         processing
1    22        0              17                            Program Queues                                    done      
2    36        1                                            Program Depth-first Search                        not started
3    30        0              22                            Research Mathematical Induction                   done      
4    33        6                                            Review Stacks                                     not started
5    20        0              7                             Review Circuit Diagrams                           done      
6    30        0              26                            Program Binary Search Trees                       done      
7    17        0              3                             Research Breadth-first Search                     done      
8    15        0              2                             Program Mathematical Induction                    done      
9    19        0              5                             Research Heaps                                    done      
10   29        0              18                            Program Heaps                                     done      
11   34        9                                            Research Set Theory                               not started

Queue state:

ID        DUE ON    ASSIGNMENT                                        
0         33        Review Depth-first Search                         

---------------------------------------------------------
DAY: 33

Processing task 0... 

All jobs by id:

ID   DUE ON    REMAINING      FINISHED DAY        OVERDUE   JOB NAME                                          PROCESSING?
0    33        3                                            Review Depth-first Search                         processing
1    22        0              17                            Program Queues                                    done      
2    36        1                                            Program Depth-first Search                        not started
3    30        0              22                            Research Mathematical Induction                   done      
4    33        6                                            Review Stacks                                     not started
5    20        0              7                             Review Circuit Diagrams                           done      
6    30        0              26                            Program Binary Search Trees                       done      
7    17        0              3                             Research Breadth-first Search                     done      
8    15        0              2                             Program Mathematical Induction                    done      
9    19        0              5                             Research Heaps                                    done      
10   29        0              18                            Program Heaps                                     done      
11   34        9                                            Research Set Theory                               not started

Queue state:

ID        DUE ON    ASSIGNMENT                                        
0         33        Review Depth-first Search                         

---------------------------------------------------------
DAY: 34

Processing task 0... 

All jobs by id:

ID   DUE ON    REMAINING      FINISHED DAY        OVERDUE   JOB NAME                                          PROCESSING?
0    33        2                                  overdue   Review Depth-first Search                         processing
1    22        0              17                            Program Queues                                    done      
2    36        1                                            Program Depth-first Search                        not started
3    30        0              22                            Research Mathematical Induction                   done      
4    33        6                                  overdue   Review Stacks                                     not started
5    20        0              7                             Review Circuit Diagrams                           done      
6    30        0              26                            Program Binary Search Trees                       done      
7    17        0              3                             Research Breadth-first Search                     done      
8    15        0              2                             Program Mathematical Induction                    done      
9    19        0              5                             Research Heaps                                    done      
10   29        0              18                            Program Heaps                                     done      
11   34        9                                            Research Set Theory                               not started

Queue state:

ID        DUE ON    ASSIGNMENT                                        
0         33        Review Depth-first Search                         

---------------------------------------------------------
DAY: 35

Processing task 0... 

All jobs by id:

ID   DUE ON    REMAINING      FINISHED DAY        OVERDUE   JOB NAME                                          PROCESSING?
0    33        1                                  overdue   Review Depth-first Search                         processing
1    22        0              17                            Program Queues                                    done      
2    36        1                                            Program Depth-first Search                        not started
3    30        0              22                            Research Mathematical Induction                   done      
4    33        6                                  overdue   Review Stacks                                     not started
5    20        0              7                             Review Circuit Diagrams                           done      
6    30        0              26                            Program Binary Search Trees                       done      
7    17        0              3                             Research Breadth-first Search                     done      
8    15        0              2                             Program Mathematical Induction                    done      
9    19        0              5                             Research Heaps                                    done      
10   29        0              18                            Program Heaps                                     done      
11   34        9                                  overdue   Research Set Theory                               not started

Queue state:

ID        DUE ON    ASSIGNMENT                                        
0         33        Review Depth-first Search                         

---------------------------------------------------------
DAY: 36

Processing task 0... done!

All jobs by id:

ID   DUE ON    REMAINING      FINISHED DAY        OVERDUE   JOB NAME                                          PROCESSING?
0    33        0              36                  overdue   Review Depth-first Search                         processing
1    22        0              17                            Program Queues                                    done      
2    36        1                                            Program Depth-first Search                        not started
3    30        0              22                            Research Mathematical Induction                   done      
4    33        6                                  overdue   Review Stacks                                     not started
5    20        0              7                             Review Circuit Diagrams                           done      
6    30        0              26                            Program Binary Search Trees                       done      
7    17        0              3                             Research Breadth-first Search                     done      
8    15        0              2                             Program Mathematical Induction                    done      
9    19        0              5                             Research Heaps                                    done      
10   29        0              18                            Program Heaps                                     done      
11   34        9                                  overdue   Research Set Theory                               not started

Queue state:

ID        DUE ON    ASSIGNMENT                                        
